<?xml version="1.0" encoding="UTF-8" standalone="no"?>
<!-- Created with Inkscape (http://www.inkscape.org/) -->

<svg width="147.5145mm" height="72.430679mm" viewBox="0 0 147.5145 72.430679" version="1.1" id="svg5" inkscape:version="1.2.2 (b0a8486541, 2022-12-01)" xml:space="preserve" sodipodi:docname="comentario-embed-ui-elements.svg" inkscape:export-filename="comentario-embed-ui-elements.png" inkscape:export-xdpi="176.31894" inkscape:export-ydpi="176.31894" xmlns:inkscape="http://www.inkscape.org/namespaces/inkscape" xmlns:sodipodi="http://sodipodi.sourceforge.net/DTD/sodipodi-0.dtd" xmlns:xlink="http://www.w3.org/1999/xlink" xmlns="http://www.w3.org/2000/svg" xmlns:svg="http://www.w3.org/2000/svg"><sodipodi:namedview id="namedview7" pagecolor="#ffffff" bordercolor="#4c4c4c" borderopacity="1" inkscape:showpageshadow="0" inkscape:pageopacity="0" inkscape:pagecheckerboard="0" inkscape:deskcolor="#ffffff" inkscape:document-units="mm" showgrid="false" inkscape:zoom="2.3375982" inkscape:cx="359.34319" inkscape:cy="123.63117" inkscape:current-layer="layer1"><inkscape:grid type="xygrid" id="grid959" originx="-20.0254" originy="-53.433894" /></sodipodi:namedview><defs id="defs2"><inkscape:path-effect effect="bspline" id="path-effect4115" is_visible="true" lpeversion="1" weight="33.333333" steps="2" helper_size="0" apply_no_weight="true" apply_with_weight="true" only_selected="false" /><inkscape:path-effect effect="bspline" id="path-effect4037" is_visible="true" lpeversion="1" weight="33.333333" steps="2" helper_size="0" apply_no_weight="true" apply_with_weight="true" only_selected="false" /><inkscape:path-effect effect="bspline" id="path-effect3219" is_visible="true" lpeversion="1" weight="33.333333" steps="2" helper_size="0" apply_no_weight="true" apply_with_weight="true" only_selected="false" /><inkscape:path-effect effect="bspline" id="path-effect3199" is_visible="true" lpeversion="1" weight="33.333333" steps="2" helper_size="0" apply_no_weight="true" apply_with_weight="true" only_selected="false" /><inkscape:path-effect effect="bspline" id="path-effect2390" is_visible="true" lpeversion="1" weight="33.333333" steps="2" helper_size="0" apply_no_weight="true" apply_with_weight="true" only_selected="false" /><inkscape:path-effect effect="bspline" id="path-effect2352" is_visible="true" lpeversion="1" weight="33.333333" steps="2" helper_size="0" apply_no_weight="true" apply_with_weight="true" only_selected="false" /><inkscape:path-effect effect="bspline" id="path-effect2336" is_visible="true" lpeversion="1" weight="33.333333" steps="2" helper_size="0" apply_no_weight="true" apply_with_weight="true" only_selected="false" /><inkscape:path-effect effect="bspline" id="path-effect2318" is_visible="true" lpeversion="1" weight="33.333333" steps="2" helper_size="0" apply_no_weight="true" apply_with_weight="true" only_selected="false" /><inkscape:path-effect effect="bspline" id="path-effect2255" is_visible="true" lpeversion="1" weight="33.333333" steps="2" helper_size="0" apply_no_weight="true" apply_with_weight="true" only_selected="false" /><inkscape:path-effect effect="bspline" id="path-effect2136" is_visible="true" lpeversion="1" weight="33.333333" steps="2" helper_size="0" apply_no_weight="true" apply_with_weight="true" only_selected="false" /><inkscape:path-effect effect="bspline" id="path-effect2120" is_visible="true" lpeversion="1" weight="33.333333" steps="2" helper_size="0" apply_no_weight="true" apply_with_weight="true" only_selected="false" /><inkscape:path-effect effect="bspline" id="path-effect2104" is_visible="true" lpeversion="1" weight="33.333333" steps="2" helper_size="0" apply_no_weight="true" apply_with_weight="true" only_selected="false" /><inkscape:path-effect effect="bspline" id="path-effect2088" is_visible="true" lpeversion="1" weight="33.333333" steps="2" helper_size="0" apply_no_weight="true" apply_with_weight="true" only_selected="false" /><marker style="overflow:visible" id="Dot" refX="0" refY="0" orient="auto" inkscape:stockid="Dot" markerWidth="5.6666665" markerHeight="5.6666665" viewBox="0 0 5.6666667 5.6666667" inkscape:isstock="true" inkscape:collect="always" preserveAspectRatio="xMidYMid"><path transform="scale(0.5)" style="fill:context-stroke;fill-rule:evenodd;stroke:context-stroke;stroke-width:1pt" d="M 5,0 C 5,2.76 2.76,5 0,5 -2.76,5 -5,2.76 -5,0 c 0,-2.76 2.3,-5 5,-5 2.76,0 5,2.24 5,5 z" id="Dot1" sodipodi:nodetypes="sssss" /></marker><inkscape:path-effect effect="bspline" id="path-effect567" is_visible="true" lpeversion="1" weight="33.333333" steps="2" helper_size="0" apply_no_weight="true" apply_with_weight="true" only_selected="false" /></defs><g inkscape:label="Layer 1" inkscape:groupmode="layer" id="layer1" transform="translate(-20.0254,-53.433895)"><image width="88.914902" height="72.430679" preserveAspectRatio="none" xlink:href="data:image/png;base64,iVBORw0KGgoAAAANSUhEUgAAAsgAAAJECAIAAACEu0WCAACFbElEQVR42uzdCVBUZ6Iv8Nx5r+pN 1at3X83cujcz79bNzGSxsqjZNDHEBVxwwyUazaDmEs2YG6OJkYyaTPDGyIgREwJmhDShsaG7aRYb ASHNvjQ0Ng00Te/0voHszdIsTTecd04vyOYaMzHj/1enyu7mnO985/Ty/fv7vtM+RNzUBEH0ut1K +1C5pYvbYs5oMaW3mMgbFZYulX3I7nJPEAAAAAA+D93oD64JwmIfypPKM5qas5q16eIWdj15W5Uu UVE3Glu4Em2WuPmKVEGu5kK+AAAAgBsFC2ufI7dZn9ag4io06WIpV6QU6DqarN3Ntq4mW5fY2i3Q tl+uU2Y0SskV2A2qHKne2u/A2QQAAECwmMZFEHUmK7dZnS7Vc5q1l6SKuvauzgligCCGx4mu/uGu wREHeZe87Sbq27vJFdKk2jSpLkuqFpqsbpxRAAAABAsv5wTBU2nSmpUsKRksdCX6VuPoKBkpRjyB Y3hkTK836g2m4VEXeddJEIMEYXY6iw2tZLZIlanZUmWhUuPEsAgAAACChZsgeDJtWnMLS2VkKQ3M BmXLsMtBjI8SjnFieIJwEMRQX4fR3mkkb4yPD44TQ2PEELmCetiV2qBkKg3khhxJS6FMO47zCgAA 8IAHC5HOlinWpCutTIWVJTdnNeuEVusIMThBXOsfkreoC+oqL5blxpFLXdVF8m6/Q0YQ10aJQXI1 cmWm3ExumKGwZom19TobziwAAMCDGyysfQPcRlW61MCUmlNkVrbcxpFoC+VyHp979Ojrq5f/Zv7v f/HEr//psf9DLY//+p/Iu6uW/+bY0dd5VVxyNXJlchNyQ3LzDKkhu1Fl6xvAyQUAAHgQg4Vrgshu VmTINSyZjqUws5WtqTJLqszI0+g/OP7er3/50Iqn/m9owO8Orlvw0ZZF4ZtfPLTx2T+++rvAZ371 q18+dPDP/1WoNTBlxlSphdyQ3JwshCzqcrMC16ACAAA8iMHC1D/IbpKxlVqW0kDmCTJVMBU2hsxY aW17883Xjr25rrsmq70oaaA6zV7F7OezeiuZnaUXO2syP9oTHPbW9nKjNVVmYilsKTJLitxITbZQ askCyWJxfgEAAB6sYDFBEN/LVWyJgqXUM5WmFIWZQQULK0tuLJEr3tqyIuG9LROClK7s0935Z7u+ p5aeguiuy6fHBSnxB7eEbVlRplCypQaW3EoGC4bCnKoyMZV6skCy2Puyz6KHdyo0YFVoZFkPnn4A AIB7HCz6XO5MsTRDrmPJDUy5ia2ypSqsTLk5Taqt07R89MZqzodbx0vOj1w53X8lsr/g9EDBaUf+ aUdupLvsG074ax/uXFmv03IkGraMmrzJUttSFKZUhSFdrssSS8nCb6sWHWLm6SM7NgUvCgzZvD+S Lrq7Jt9ZHhG8KGDb2eabruWWx+4MXBQQuCNBcwdla5J2LKO2WvRuRiteNQAAD7D2Gk5MlsyOE3Gj YKG0D3Ak6ky5Ka3ZxJIYOVSqMLGk+vQmZZ1CGvP+H/M/eWOiKmHw8qnhK2eH88+N5n/pyDkzlHd6 gp+Q88nOmA93XZVJMptUac16tsyUprCmNhtZUlOGwpQuUavttzGF01pwdKunzZ5c1p/g9d3FsbQx 9wfeOliQAcQq5BWLW513ULQhOYyqGJktAo9kduBlAwDw8+XuVlakJNOjz9Pi2IUC09CN1tMVMbhq 39djlzI/vsR3weNIu6ZB3++6L46lqzKVUWD6kXfSL0lh1rXffrAot3SkyQwcmYUjs7KlRjY1x8LA lus5TUqhSs6MCr8SsdtdeaEvJ3Ig96wj99xQ7rmBnC/seX91Vl24HLErNepInVJOBot0qZ5FDYgY mTIjW25Nk1s4UkOl+ZaNcE9OeDDVZu+MzJH3DDgH1bwk5lXP5Ax3jzQ3/ui+bUGBgQHrww4nCLu9 W1yNDAoIDDocGx+xf3NwcMDW/ZG5JqebH7F+SjQJPM5zEk4T39cRsix47f7ITI1zSv4I3Jve5ru9 7GB85eWzh0KDAoODwiJz5niGTMx9VKSIPBW6KCD4cO71DpUBTcHZ8LC1VA1DD8fxW8lXoNPEizmy Y31wwKptuz9jSvvwHgYAuJ/YJSkJ3DJj/8jYaLe+oUhgHrlB/pDn0CeDhaOROxks7id/l2DRWUe7 o2BxWd3KlplZChtTYaXmWMh1KQoDS0lliwqVOjsx+r3lv+8q/HqoIs5VlTBYGDP4/Vfj1bT+0pj2 4q8PBP4h89sz1WoNp1mXJjcwFQaGQpeiMjFU1lSFLU1qzlPdatygLWPvMk83g2hWB4I1Y29gIJUJ toYEUHEh+HB+z2Sw8HRshO0N20b9aVlobFN17L5Q7+NBO8N27IutcTprvthG3g1Yv23tKs/6O+Ol 7rmChX8r72pBEaUDc1YyLEladoLcRcBR3wpODXOvt+RVIWT62fyFcIDo4UV4dropbHdoCFVaeEE3 3sYAAPcPU0UcQ2Cb9UuO9hY+m8GISWDQizT2cbe6gBEdGx/1DT2GVtIozo85Hx91nh6TwCoyEfZ6 bkyBnuqxaBfQMgQSQWFKKiOGxi0zjfpSCFUUKy6BFhUTHxVDy9W6R2wNGclk4fT4LIHuXv7PWnME C1eXsiCDFXOBHs8paWh336hKBDGkE+TTaOQBcjL4ZofnhNgqWfHlvghhKmPRarqIzoaUC7SoWBp1 ZgRdtxUs0hWWVKmBqbJelJtSFMZUhYGpNKTIdKkKU65UVVNTuvKpf/36nTWN3310Zvv8/177+8/W /SHqtafqvwv/8p3VQU//69WrFVckcrZUlyrVkhsylLqLKkOywsRU2ZjNhky55Rb7vxpNpYFVJ8rn GJhwGq4KDVTnhVN0ztNaR5Q6J4PFquM5VIvdk3mY6vBY+4WYcPMjVk0fCumW1zR7skjH5QNURgmL 18wdLDafJjMBMZB7hIop22Ol02eGdGdTj689J3Z2Xz5AJozgEzyqVoO8T6hdBxxiqqmfN+/pHiYI VTw1FSM0XuokJrtDMHQCAHAfGWsvS6XH5zWou0anfClvoCfmCjvdxHi/JI+VIR0i211hBm2yx6K9 hhPn77GYGiziz7NyldSwiL2RG5MlozLDqIZLyxR4ihJmsXJbhlxEvzCDkSEny3TbLe32e/nr1LOC hctWlMzIaOoacbm7pYVxiRW6sTmrRNgluTGpfN2g2+WwlbHpKfW9cwcLbxRLvZMeC7ZSx1LqUhRa lsrEkllSJcY0mYEtM6RS8zf1lRrTJ58eW/L//tfrT/zvi4dCjFlfGLOiOB9tfe13//OV3/7yk4hP KjXGzGYlW9bCkutS5bqLUo3nt73NZDRhKrRspfYW+6+JvHGwIINBQexnB6mxDG8XxaHL3ZPBYn10 jefpVv8tlPrT4cvds4OF01TOjj68LzQo0Nstse2saO5g4bk9s2S/Qc9gTfDRYjJNmOhh5PohEZVO wi0+u9XTj8IbnBpBpk0W8famqPA+BgC4n4x2Sfj5tARaPFcg73F7GlQOje/7Ou7Sl8RTueG2ggUt me/r/LDx470dIZ11kw+2CzI93/JH5XkMGk/ZPnzPj2RmsCArH8cQtPuyS6+A6RnNmaNK/QI2PUPp i1aulpIYT3S4N8EiS2NKUxuobCHVUr+bqWzLVJhYzVqG3MhUWDLlpitXG9e8/OzK3/3z+yufTDwY knhw4/tBTwT/4Z/XLXk+u7o+U25Ol+vZcm2qTJ+msrKV5lSpnikzpClNbJUuU6O7VZcUc/cyT+sr n9VfIYrdTP5pVdjR7y5nng7zXpExO1hI4zzBIrxgYGawaMs8TA1GrD0Uy8xNOhxMBYLIuwgWg6VH VwXOiAtrTwudNwkW24+c/Vt8rHdJyBBhLAQA4H7suuhXV2bGUN/p3ep8WjSNQ2N4lmRGXIHmjoPF 5O0xc0FSZlmbm3B1CTgsz6CDJ8qU58bTGCllmu57Oe1zZrAYkeRGc5X+WSNueQ4tpb5/jiqNtxcl sYomJ42QyYNWoRu/R8Gi3Ga/KNamKYwsuZ5FRgqFMVWiTlcZGArtRZkutUlXorElsthLFjz60m9/ seTXv3jlV79Y/PD/eGXhozRmSlGLLU1qYYh1LIWVrW6nS0zUFacyC1tuY8utF5s05a23bFRN9H2e AYWwaJ5+kHAOqovjI5PFAwQh8syQ2BxDJg6nNG5WsAg+ntNBEH3is6H+a0fdwshNgf6uBc/wBxVZ juT0kbcLDq+6y2Ax4JlXsWjVth17wqhlJxVWFm2NFrl9006poRAyhA63qa1OQh6/marbkUyTpwfG 2dONHwkDALhvucy5CZzKTqpBneyx8BtquLtgQbhNZZk0DpfOyeXW2abNDB1tF2TQUxr7f9Qei5ip PRZs7/zT2VWa3mOh9fVYtPOvH6aphHGXwULRO5ops6Q1U9eDMJUmuqQlTWlIlWuYaj2rhbrEI61B Va7UZWVzju1Zc3zL8x9vfvEv/7kh/RKrWKFKb9KwqRhhZSltyXILU92WLDGkKVqZEiuzyZQhMyn7 bt3v41Ql7Z3RJeCZDGFI3e+5viNk807PDM0ZwYJaLTjAO8YRfCSHCgb+C0zITfZE1/TxI6heisCA raGbg70l30WwcJaf8nR7xIj9nRKe6RoBoWebCWdjrO/HLQKDqdGWsCS1uy0nPMRbhx1hYZuDg9d6 Zm8AAMB9orsul54v0XUNuUaHbE35cbQS9RjZotbRE3MFbVRD6+pp94xZuOV5dLJldY1TTYKjkRud IbGPE67xW/ZYaLhJJdTMhknj/fI6mY0qc0iex6C6EH60YEGM2YqSps6xKNGNzlUlMh41TZ9jUUfN sXBIcqNTBbZRt8NUx6bRfMGis46WUCgn6397fS0P9Y0RGXXKbJktU95G/Xqm3MRWW5Ol2qRm1UW5 hqMyX9G18hTamrpqRUGSJfucLfus4sq3NQ21PLUhR2tJUxhYcj1dov5O0ZKqNTHlJo7MmiFruyS1 posUfbf3/4U4TaXea0epTLDvBL3G08wPyulHw4ICg9fui2QWJ1HXZUwNFpuORH62f+2q4KA9J5jN /m4BU2nk/m0By8gwcTzTSrQWR+/dGhwQHHrgb6WZn4XcTbBwentBQiJqJueA+Od7/o2aCNp9lXl0 37YAMlhs3380wXO56bDnclPvj33tOx6br0GwAAC4j4x1ScrzyUYzKpYWxywU2nzf2u0tAnYyPfob ehy7pKGTagZclroUGi06Ib+BTAIOcxGT/CsjVz16qx6L/gYuuSYt+jwt+gKDxq3TOfp1gkJ6Ij0m gUHLabCN3sODIYNFvOdCD89yvlDtIlydygIOK+Ybejx78qqQWVXypBxdDXVVSDR1VYjeN6V01FbG YUTH0mn5Mh2ZwLzBguiXFHDIbePLb+uCW+onvQuluqwmA7PJxJSaqf/9XKbPajFeMeizFM3Mhvqv 8vLPpXPFCpnkSnLTxZPNjM/EOTSxWvlFOvervCsccT1X1lhg1GTotAwyW8j0zGYDS2LMajbwpLof 5Se9fcEiWuTG+wMAAO4vLpuAnqP0XVI62lXJpmXI3Q9UlTz/CZl9gNkgz9DYUiS6LJXlisZ8Pu/y yYTTh//6/pZ3X38y6KVXtmwXSmTWZoGqOF1VfMkira9tki7aEPLcmqVvvLcz/PO3I789+fWVvGxt K0dtSW5uSdda2GKF2e74Uao897UbAAAAP70ReX5ctszXAdCvz02m5nA8UFXy/bfpXLma2azKVlsS K0Wr//TeE8teXbohYFHQ/BeCFy3esPKFNSHJnJxOi/GbyBPf/DWyq7U9MS1rUfC6V0NWLQp6dvma Z5auW/T7gGVB+8NpgqZLWktKs/yS9Ef7b9MRLAAA4P7tsuiVFHFpSSxaKofGzq/U9j9oVXrI+0+r Y5hT35zdpHo1dN9vXgx4ZuXa+cuDyOXJoOCXt+5aGLT1z599RUwQ+8P2vb37bfJG+OdfzF+1bsnW bQtXrVnw6vKFy1Y9HbTx4RdXvBK6/3KzJq1O3OoYwqsLAADgQfPQ5C1lR3d8Du/x5WsXrNny9IoN zyzfMH/llqdXb38hZM+idaHrdu7vcYxv2/HmH9/4k91BrNz55sJ1m1/a8kdqnWWbF6x4bX7gFvL2 E0s3/O0Sr6UL/+sbAADAgx0s3AQRmZD07y8uWxC05ZnlIWS2eHLF+nkrQhas3r5k8+6X17/+N1bW b5+Y/++Pzqexsl8I2fbS9l0LV1Frzlu64anAzU8tC3lu5Wv/sXDFF/Gp7gmcWAAAgAc7WJAGh0eD d7712AuBL6zcOj9ww1Mr1j9J9VtsfnHdtpc2bFu5Y8+/PPb0w4/OX775jRc273x+07YXV65ZELD8 +TWb5y1d9/yqrY+9sGLjzn2O4VGcVgAAAAQLyuiY6+MTUb976sX5S9csXBmyIHDT01Ro2Lh00+uL 12z6l0ef+bfH5y8K3rLktT3zV60++Oe9q9a/9NzywOdWbHzkmZePfnZ6dGwM5xQAAADBYpoKfu1z S1c++sIrT7688tnl659dvvbltVsCt+155LlX/+O5JQFb/vjs2m0LV648duKdwNXzH33mqedeXVNe LcTZBAAAQLCY24jTmfM9Lyhk29MvBT7x/Ir5Szc+v2Hno8vXP75s/ZKtux9fuuYPLy5eu3XN5u3r cgry0VEBAAAANwsWXuMTEybbtYzLRR98enbNf773/Gt7Xti8Z23Ye++diEy/UmCyWsYnxnESAQAA 4LaCBQAAAACCBQAAACBYAAAAAIIFAAAAAIIFAAAAIFgAAAAAggUAAAAgWAAAAAAgWAAAAACCBQAA ACBYAAAAAIIFAAAAwL0KFp2dvViwYMGCBQsWLPdkQY8FAAAA3LseC5wCAAAAQLAAAAAABAsAAABA sAAAAABAsAAAAAAECwAAAECwAAAAAAQLAAAAAAQLAAAAQLAAAAAABAsAAAAABAsAAABAsIAfxs19 79K+7LFbr6iQrA5urHfd05272j5eyvu6Bc8CAMCDFixcmozY+KgYRoHR7X1oRJkfHRMfRaswjXvu jw+Z6kroSfToWFpMcm6BpGvEu56pIo5cjVxiaXGM3IJGm8PXongLnFxo3Bay5CFhhv8Rqhxubn37 iL8SpjIG9fg3+ZJhguiso03bnFpSmoaogjuVRVxO3Dfkmgx6Xp2u37v1zUomxm0FtJmlRedpqDZ0 uL2hiBufQIs6T4/nlAgtQ9fbxLl3RLTXcCYrc33lLmVBFivmfHw0jZNRrmwfu/dPUnVk7urzvfc2 WIwW8JdGdiBYAADAjxQs4uOKzJ6WZVSeQ4u6HixGTWUsT6vPoDE5MdSatJS63uvBIpGbkc2N/4Yq gVZuc00Gi/MMelYum1ryBbbJ5p9Oyy7h5uXSLlC3c7WeKDPeXpZMlk+LjqFTEcSuLOCSW2V6yqTT OFQhZfpRwi5jU1vFxyRn0hI9NUwsUQ/ftGSq8C5hPlUC3RMvYlKp2xlCGxkHKtlUIWQaoKcyqCB1 nlNm82x1wx3NFSzGbAWJ1DmJY3hWjmVN5rP7PFh0MEtnBAspggUAANyzYEEuCSU6smkZ1WR847nr DRb9spTzZKvPFfZQ7aXLJqB51lSP+YKF79t/j4RNbnWe2zDoDxaTHR7ElH6FWE5lp6dTRE51isRX tlN3PF0U9BJ+Smx8DM/s8geCMga5vqdATxtpKqF6NeJLzFRvxHi/JJtO3qULe29W8hS6IjrVd6L2 98qoC2PIyjPrbFSz6+6u45JbRXNljpvtaK5g0e45IcyGbk8ma2/rdf0IT9IcwaK/O/lo8dLFlxYE l54s6B/1neNu9selS5dcmre0+OMCx9Rg0Vd9dfUmUbW/66Ujk79gYcbDz2QvWJJ/stYTLDaI2AzB 6sWXHllaeqZ2zJc23pJyv6pYvaL4a4Vnj0eKly7NXryBHy8e80RO89cfFC9+/tK8JTzP7jynQKE9 Epo7b2H2xiNXdyFYAAA8sMEijp0ZF0vP1bupcZDzmSlMXzJwqQujJ9ODp0ETsskv6Kwi2/RgQbjl eTTfqMdkjwU3l83NzSjXOGYEC1e/uog12Vrb6zKjYhhFRk+/ReLk+MuMYNFbmXo9PVARR19CJoMo rnLkxiXfJFh400NKoz8ijCozqPxUonbdZEdzBYthDZfq3qDFZwsaTP2uH+dJmhUsxkqP5i792Gwe cvdJlWT7fUbqph78OHfxB1oNmR6udVRTw0/+YNFpPhBMhoNpXSma87zFU3ssnsnedaGtY3RM+hVv 3lvaDu+DC7N3JfWO+ve4OtLa4SJGpZKNmyRS8obCwK7o7RslU4to6QpRNZVKO06uyt5+oaNv1G2u aNy4EMECAOBBDRbROfyCpPgYnkaSR4vm8IvYvmAxIsmlRklKbP713fIcz1iDfkaw8DXVbOnozDkW vm/zU2ZCeJfEQvmg//FvCuVjbnUBPSqWVdY2V7AYtxUleu46rncVxJN7YUvsNyz5JsHCrc6nTc0Z xLi5IIEsP18yepMdzT3HwmGsY3tHTGLiY9h89eCPHyz6DfueL02+5rtXH5VPRQTqweJk69TtPMEi s5v9X/m7mP0zypwZLCbnWIgbl26gcgP14Iqr1aP+PS7hc31lOOL3FMeb/JGss7e+sHH7wlJq19VX F08OqWAoBADgQQ4WUVyZrpwVlcCKv0BLadRXMvw9Fi2eHoscjX86ZK+AzBze5n9Gj0WOp6nWum82 FBJDp+UUpiROmSvqULLPx0ddyOSWVHDZ1KADraZrzh4LAZPqSCjzD3G4tFRHQnS2v8didsk377Hw TBdNqfc3t8PeapToxm+yo7mDhae2o+3KOi6DihcxBfp73m8xM1iYlBsXC0r9u+lgls57zzA6/cHJ YLF0E2/xkuzVUR2jtxksJm9PfZAs/JlssqjVnmXpitJ4MjFYzSff4m1/T/Q1TbT9eSpq9GVXzHtL 20cgWAAAIFhwZY42z1fz87kN/Z5G3ZsMBmVszxwLQRfVJI9Y+N45FrrpcyxcPZKUbzzb3sYcC4c8 39tUOyavQJm6sD09HDODBWEqp8Y44nm+qQ8NXM/Uh7r+G5V882BBBiZqgCNV4J1j0S7MjPanhxvv aM5gMWqSKr3Xw7i8s1kzJI6frMfi+oP+YJHxyKbGeqv5yKrieN30YHGBt/izttsNFmThiyd7LLxG uP+Vuy/TEzhd1iNLqGAxWipYsEmiQY8FAACCBRksRjxtOdUqj08JFoTbxudET7sqhM5unPOqEBqt cvpVIZ45FmxuflnL0PQ5Fu1FyVS3R5HNSQ1/TPYxjLd7hyGE/XMEC6JfmZEw/WKN5ArdKHGDkt03 DxbEeK+QM+OqkMzKNvdNd+QLFjEMLts7faRS36ctoU5CLD0+NTPeM9li9vSOex8siLH8I7PnWIxw P8hefISaYzF6rY1b2u/tsdiVSUUnM7N08XuGjilFUP0ce9TUXFnXbQQLYoTc4+rPzGbyPLhGpAoy OzmSQ7P3ZTqouxz+4mc8gyO95gOLcw/kOkZdY54HESwAAB7kYEG2Hvau9kE3MS1YUC2393csory/ YyHt8rU1U37HwvPrETf6HQvviMO0azfsklyqhyCz6jKN+vkKua+b3jPNIobGlg7NESyofhFNEZcT c97/8xKDM/tCrpecJbPfPFhQfQ1d1O9YXKBRsYBTIrSN3mpHvmBxfeFI7ONDpvqSlGR6dCyZUTK5 QrPjR3iSyGDx8O8zfMvjuSfrfVeFLPZeFZLrvyqktyP+yNQHp1xuOtpxckP+x9VTLj3ttZ58LfuR hblHCsduI1j49/j8pXlL83d91UZmlI6Kxu1Lybu8AzTtyddLvbMuyAd3rbj0yPP5u6KUJ18vRrAA AHjwggUAAAAAggUAAAAgWAAAAACCBQAAAACCBQAAACBYAAAAAIIFAAAAIFgAAAAAIFgAAAAAggUA AAAgWAAAAAAgWAAAAACCBQAAACBYAAAAAIIFAAAAwA8OFoODQ11d9s7OXixYsGDBggULlrtYyCBB xgkqWJD/9Pc73G43QhYAAADcHTJIkHGCDBUPkREDqQIAAAB+eLYgQ8VDnZ29OBcAAADww5GhAsEC AAAAECwAAAAAwQIAAAAQLAAAAAAQLAAAAADBAgAAABAsAAAAAMECAAAAAMECAAAAECwAAAAAwQIA AAAAwQIAAAAQLAAAAADBAgAAABAsAAAAABAsAAAAAMECAAAAECwAAAAAECwAAAAAwQIAAAAQLAAA AADBAgAAAADBAgAAABAsAAAAAMECAAAAAMECAAAAECwAAAAAwQIAAAAQLAAAAAAQLAAAAADBAgAA ABAsAAAAABAsAAAAAMECAAAAECwAAAAAwQIAAAAAwQIAAAAQLAAAAADBAgAAAADBAgAAABAsAAAA AMECAAAAECwAAAAAECwAAAAAwQIAAAAQLAAAAAAQLAAAAADBAgAAABAsAAAAAMECAAAAAMECAAAA ECwAAAAAwQIAAAAQLBAsAAAAAMECAAAAECwA4PY5WwWFZTmi1rEb/H3E2JBTpbVPzPrDRG9jaYXA No5TCAAIFgDgM2aT5lUJC0ukFjeChd+gsaxUfm0Crw4ABAsAuDPjrU1VZWprU3mV6No4goVPb0th CYIFAIIFANxxrugWlVY3drlaxVUFzd3X+yyGOpuEtXm8ijy+VNEsmhIsXD16aVlpBbewtkKmFZTN ChZuh0UtLSuvyvm+oqBabhycHUeGW1WS4pIKLq+quNHY6aQeG+s2Xq2uJjfJqxJL24b9RbUKCsWq DrOI/BOvoqBW3znisMgaCosrcsoapJ0u71o9KmGhtNWiFBeWVOQUC0UWxwhZGp/cpKpYbB3wh4Pr u+BLVN3ebYc1gqqrll5Nk6igsCKntKGpg6rNiFnMLSjzLaWqTsQLAAQLALhdXaqCYmoQhGxNc8pa fI3oeJ+0qiJPqLfYB+xku15VwfUHixGrJI8nFBm77f29FpW44PuymcGi3yxq0hs7BwYGe1XCqhxR 68i0P7uuSWtzyiSqa30DA716lbFzjCAGzRWFVRWqzp6BgWt6aSGvtqlr3BcseGV5NS2tQ+PEaPvV 0rK8UpHIMjA2QRXC5evtvmBRy+XVCvR9YxPj9hYRmScKhfprI4R7yMwvrLra6skQ5C5KRY3WPseo 026RF5ZKPTNKyGBRxi1pkHYMuwlXp6x28jDHbNKcEnnr2LgbqQIAwQIAbl+Pojan1kq1/YPGMl6t 1NNWu9ukeYVi46hvnSlDIQ4Fv6JQ0efr2LjVUAhZTs6MAYURK59XLbrmmvYZIa3OqTU7/F0orU1V vpmkVLCober2P95YkdPY7p7MQzyJ0e0LFjlCq2/m6YC+mCdU9HvvOPW1FcWqAc8uaslq+3dIdVR4 xn3IGxVlWv+eu1uoMsduUHMAQLAAgFuYGJBWVZS1eFrWib6m8rJiNdUM21XCnBqjg5gVLMbbBbwq Ucfk5nMHi7GBTpVMWsGvLSyt4PIklql/75Dn+QPBlGbe1/z7NreIc8o8AxDeYOH/8LjWXJUj7vRt atcW8sR6pz9Y1PkvaRk2V/BECl9h40ZRhSdPeHomeBU5hf6FVyGw+oOFzj/y0qctJsscRbAAQLAA gLtDfr//fkqLS96uNpKNco+yNkdgniNYUC39LYLFWIeqsEQoMnQPkE19J9WvMDtYTL/8ZFj14wcL VU1FcYtj1vEjWAAgWADAvePQiXLK5K2Dw44hahmwSPO+b9AMEWNmMTXDwN/8jxj8wcLTq3F97GCi e1awGLfUV1wfdJgdLKiGv7qxY1oW6Wyuzqm1Tg6FXJNU59R5RmfuWbAYv0buYkpUuq1gUSxvRbAA QLAAgNs2rKmtKJBNeW+6O0UlFRVGJzHaLiipKGyydg44emx6flnZ5KxGapSkpEFxbWCgr1svEebM nLzpmSEh0HeSMaXTKqqumjkUQjgt4uqccqmmY2Cgv9eoVGn6CWLAWFFYxVd32gcGrhmoyZuN3is+ 7lmw8O2iTNFuH3aO9HdqtO2OmwYL6vb3tY1tDjJvjeGVAoBgAQC3NmrlF1b7p0ZOiQV11HUcY91G QRV1yWihsMViURVOXm467rBIGwoKy3JKhFd1nSrhrDkWQ+2NNdTVoYW1LcYusjmfESzIuDBglFKX jHILq8vExk5PQz7S5b8WtELc1DrsSw/3MFh4LzclK/Z9WU6pUKDqdEzcNFgQzlapKI9XllOuakWy AECwAAAAAAQLAAAAAAQLAAAAQLAAAAAABAsAAABAsAAAAABAsAAAAAAECwAAAECwAAAAAECwAAAA AAQLAAAAQLAAAAAABAsAAAAABAsAAABAsAAAAAAECwAAAAAECwAAAECwAAAAAAQLAAAAQLAAAAAA QLAAAAAABAsAAABAsAAAAABAsAAAAAAECwAAAECwAAAAAAQLAAAAAAQLAAAAQLAAAAAABAsAAAAA BAsAAABAsAAAAAAECwAAAECwAAAAAECwAAAAAAQLAAAAQLAAAAAAQLAAAAAABAsAAABAsAAAAAAE CwAAAAAECwAAAECwAAAAAAQLAAAAAAQLAAAAQLAAAAAABAsAAABAsAAAAABAsAAAAAAECwAAAECw AAAAAAQLBAsAAABAsAAAAAAECwAAAECwAAAAAECwAAAAAAQLAAAA+DkGi64uu9vtxrkAAACAH4KM E2SoeGhwcKi/3+F2j+OMAAAAwF2nCjJOkKHiIfIO+Q8ZMTo7e7FgwYIFCxYsWO5iIYMEGSfIUPEQ QhYAAADcKwgWAAAAgGABAAAACBYAAACAYAEAAACAYAEAAAAIFgAAAIBgAQAAAAgWAAAAAAgWAAAA gGABAAAACBYAAAAACBYAAACAYAEAAAAIFgAAAIBgAQAAAIBgAQAAAAgWAAAAgGABAAAAPzfj+Yf4 Dz9W+/HV8WkP97bumlf5cLBG6kawAACAn31j116UzCprm7zfL+AwCkw/tFSXMj++xPZj1NelLoz+ Jreh339fXxKXJXP8OOfm7o+i187+i3jpIv4jT9csfUOZXO+8p8FivPR4zcNPS/NHESwAAODBCBaO Ru6PFyxiEujxRWbXjx8s7vIo3P1fbycDROUjS0QbQ2rnPVb58NOiM03j9y5YONlhlQgWAADw8woW bkkOg10u4HIyaUkMWo7ENkYQ7QJaYoXJ5V+TzSgwko3hkE6QT6PRY2icDL7ZMU44JPkx5+OjztNj ElhFVFFDupp8WiK1Arepi9p6vF9elBmXQD6S6XvkToJFXJ6ggJFZ2TkzWLi6lAUcFllsfIZARz7k kLEv5Es8ra+9LjOaUddONehuXRGDLRmiHmzhsxmMmAQGvUhjH59Zq76ZR3G7+r6XkmHika06KbWT cU1iA3l33r7WjhnB4lrHmTDhggU1qw9IVl8PFuPmPPWu9TXznq5Zfchc7+mYGZVaj2ytnfc0f0Gw 5GReb2IYlVq8y+LP7QgWAADwMwkW2bS4HFn7GNXikiGDJugixrvKGKwi73f4fklKYonORdgluTGp fN2g2+WwlbHpKfW95B/bazhx/u/65Apx7DrbMEEMmwsYXEEPQRgr4lIF7WSgGO4ydY7eaY9FdI6m W5ofn610TA0WLht5IFx5v4twd9fnxvPMLqK3kuk9llFJDofGyBUOksfSVZmaWdlFEJ0N9MRcYaeb Oro8VgaZAmbVaupR3L76z2vJJn87a8R/Rq/te7ry4eflpe6pwWIoeTeVDxaEiLcH11ApwRMsRq+q l86rfGSl5Mhx8eJ5lYuPd40SQ/HbKx9+Wrjvc/WB7cJ96Y7qROnqBZUPz6vd9Rf1198PIVgAAMDP Jliwpb5W36XMj+FIyG/HtkoOjU82y4SDjAtU490vYNMzlP7VWkpiUuvapzXJ/UKOt2ODQm7OlowS 7XU0Wm6lsd915/WlgkW2coTMB0xWgcnt8gcL6oanhp7v+MqMZL5tnDCVseiCXsJlLuDwheWZXLWb 6sZIqjCNXz8QwrNtfIHeNatWdxUsxks/JBMD/8D3/vEOd8/Hi8hkIOEOTQkWJvPGeZUPr9TUk2eu 0+ofCiG3rXl4nvDkVWdf/wh7H//hJepq9+DXIVSwOMLqMXtThNt+cgWGQgAA4D4NFlM6ISi9Ajar yDIzWBB6X2Ig2gQ0Zl33+Kgkh5WrdVO5JGnK5p1k21yhG5/SJFMr0GKSOTSGZ0liZDRR/ft2Y0Mu mxGXWiiwDN1NsCCIETINsBvajRXeYDEiyY3+huHbC4MVx+CT6cHVUhjHlTna61IK9I6WElqZbURb EpencRFudT4tmuavVTIjroB8cGatflCPRYq/x6K3leqxWKSc1mNRr178WOUjYdY+Yuoci5Hk3ZWT wxzUskCe7yb6mgz7VniGPxY1nCxzIlgAAMD9bKghY0qAcOlzaZkC+8xgYa/nRnOp5pwKCgyusFPD TSpUj3l6OKb2WGjn6LHwT8WYzW1Xl8STQeROOi4mgwVZckMWi1tZEj+7x2KSQ8ZOLJHU57Kbhqjb 7Do5n5PS2O/pO2FN9ljcqFZ3FyxGi+QLyNAQoqn3zrFIaHjkscp5+1v7ps6x0Bl8PRbkiblm3e7v scinejtqD6T0VF+llvqmISp5jI4TbqcmT72RDCjrdRoyWKysfHiehNuPYAEAAPcfe1NuTHKhpG1o xNGrLs+M4TR0E75gEZcnax92u3qU3CR6htzXtWAr56Tk5dPyNa7JzafOsaij5lg4GrnRGRL7OOEa p1aIYwt0g542u62L6l2wyIRaasTB1V5Hp5XcbbAgXG0CWgI9xjvHYswzx0LaSxU23GXr8UaZ3ko2 J4XD9cz07Kpkc1PYnLJ2z1/IXSfmCtqoSOTqaW8fnqNWU4/iDrgHvfMnrl8VsqDha+n4ZGfG4n1W s3eAg7y9VbJ9Jf/6HItqzxyLJQ0H/qI+sl/8cZ6TGLWfCalZuk958nMJ9ac3zGbCSY2SPFa5dLf8 TB7mWAAAwP1mvF9dmRt/gRb1DT0+iy/3feunggUtv4KdTI9O4GTUmK9f0mnhx8fSuOrJjnjPRR80 ejR1VYje7m2DHeYiJj36G0YutdqQSZBPS6BFX2DQchpso2TLLSvIoC7fiEnkFqj776iyU4MF+V1e nk+PnnZVCCPmG1pMErdA6SvWVMaISvB1ipiKyNvXc4y9RUAd3Tf0OHZJQ6d7jlpNO4o70d/P/u8p v2PR5PQ93mLdt4L/yCJ56Sgx2mI9ElLzyILajR/pjoRcvypEQ10VUjtvAX9xiOQkmRtGh0q/lm58 lf/IPP7i7Up2C3V+R5XmfcGeR/7SNYpgAQAAPwfT51jAzwqCBQAAIFgAggUAACBYAIIFAAAAIFgA AAAAIFgAAAAAggUAAAAgWAAAAACCBQAAAACCBQAAACBYAAAAAIIFAAAAwM2DRYLwP5ssJf2DQ1iw YMGCBQsWLD9weego73FyQcICAACAe9BjgWABAAAACBYAAACAYAEAAAAIFgAAAAAIFgAAAIBgAQAA AAgWAAAAgGCBYAEAAAAIFgAAAIBgAQAAAAgWAAAAAH+XYDFBEL1ut9I+VG7p4raYM1pM6S0m8kaF pUtlH7K73BM42T+M2qFn2LKOq8+8Kflwh/jAT7KQuyYrQFaDrAyeEQAA+FGChWuCsNiH8qTyjKbm rGZturiFXU/eVqVLVNSNxhauRJslbr4iVZCruZAv7pxp2HpGd+GnChM3WsgqkRXDswMAAPcyWFj7 HLnN+rQGFVehSRdLuSKlQNfRZO1utnU12brE1m6Btv1ynTKjUUquwG5Q5Uj11n4Hzvvtq+wR3m+R YupCVg/PEQAA3INg4SKIOpOV26xOl+o5zdpLUkVde1fnBDFAEMPjRFf/cNfgiIO8S952E/Xt3eQK aVJtmlSXJVULTVY3zv3PP1UgWwAAwL0JFs4JgqfSpDUrWVIyWOhK9K3G0VEyUox4AsfwyJheb9Qb TMOjLvKukyAGCcLsdBYbWslskSpTs6XKQqXGiWGRmzINW+//VOFdMCYCAAB3HyzcBMGTadOaW1gq I0tpYDYoW4ZdDmJ8lHCME8MThIMghvo6jPZOI3ljfHxwnBgaI4bIFdTDrtQGJVNpIDfkSFoKZdrx +/KkOMSMI39691Bi4087ZnMfzqu4yXwLvJcAAOAug4VIZ8sUa9KVVqbCypKbs5p1Qqt1hBicIK71 D8lb1AV1lRfLcuPIpa7qInm33yEjiGujxCC5GrkyU24mN8xQWLPE2nqd7Y52bVcUfRsVsXfv27vf OR6RkC/ru/MjljD27nn7yCXzzfZSe4FcZ+9XfPttltmafyzs7Z3kJufvWRZRO/Q/l1ThXXCdCAAA 3E2wsPYNcBtV6VIDU2pOkVnZchtHoi2Uy3l87tGjr69e/pv5v//FE7/+p8f+D7U8/ut/Iu+uWv6b Y0df51VxydXIlclNyA3JzTOkhuxGla1v4HZTRV3iIU/7vfvDiGMfvb9zz/tnyrvuuDei9NzOWwUL 0tjQ0Nhtl9mR//nOPe/u/tPbO99JrBu5N08Mw5Y1o+X+sM1i76Xtom5/ENXdb+s4Rz74lpYndlha hiyy7uQPmw7skNCqnd0tA+qWQRlXf9yzld4+opcNqmX9vM8l4UkD/bZBmWxQ39KbTq0vPrDfInM4 cj9sOh7XqZYNXrO7uw2DamHruV2SzxO61QaHxeBo4mjCd4jn2HbqQlYYbycAALizYOGaILKbFRly DUumYynMbGVrqsySKjPyNPoPjr/3618+tOKp/xsa8LuD6xZ8tGVR+OYXD2189o+v/i7wmV/96pcP HfzzfxVqDUyZMVVqITckNycLIYu63Ky4rWtQR6TffkCmivdP5Zs9Tf6YzdDm6R4Y6xAXfftFxDtk u743/Nj5IqOnaZfRyeQRfoaeGPHR+7v3vn/E87jxcsTuPVQ0oZawCK517m3HamOp1b7gO7zlhB3/ Nj//y0/Dd4e9+86pDPHMINR15SQZKS6k0o+T1Tsv9gcSd1fdpQuevb/7zklGdTv50FBLUeKpY1R9 Dn3Bqmu/2eEeV5+ZFSxkHUOCKAmZHmILHd2y9nM7JBcKh5oSFORfw6O69GJrBBUsBnnHyFZfllw9 JIprJrdSC80f+AsJT+pTp8qpaPJltzpPQz4eHtfTVG1v8jxIlpws9G4uPnDQJmvpiH1LfGCXkise qqRCycxtp1WPrDDeTgAAcGfBwtQ/yG6SsZValtJA5gkyVTAVNobMWGlte/PN1469ua67Jqu9KGmg Os1exezns3ormZ2lFztrMj/aExz21vZyozVVZmIpbCkyS4rcSE22UGrJAslib71vGeMdsrH/gCGb eT3JmOzi8d0ffH7m/IWID9+leiMyzP5g8fbOP0V8eZFx5iPq8UOpuq767DPHqNt7P73wLT1f3Df3 tjODxR4qdkRcSDz14due3o62afvvKYrY+/buqPKO+sS9e95+J1HqSRZDdQnh1IYHIk6dizoSlW0c IzpKz5Er7P7o3LeJsYfITT7Ntt342pjZv4L1YVuTsFdUqPtgl6aEjALi9nO7NJUtPd4+jAM7VLyW PuZbk8FC/AEZNcr0H8wdLJoikvrVXBXVw1Fm535qbRKaw6cHi3ByBY7Su9UHcb36PM3xmdvO+u0s vJ0AAOAOgsUEQXwvV7ElCpZSz1SaUhRmBhUsrCy5sUSueGvLioT3tkwIUrqyT3fnn+36nlp6CqK7 Lp8eF6TEH9wStmVFmULJlhpYcisZLBgKc6rKxFTqyQLJYm/ZZ+Fr7E8Wdczxt7GxkT5bS2PZxc+p dU6V2/2B4NjlNk/08ISSD1ktbqIlNXzaUMhc284OFt717bwoaiDmfOPUndtLz+327miAf2bv2zsP MmRksugqiggj40jUlcluCbc5/RjVTZJuGHIM9dUlvL8z7HNu6w2Pd/YkBjJYlFlyqztiP70m4FoF VLAwiFo8AyLUIk0XD+YevB4sDhxr15ORwjsU0jKoFtqi/MMZetvYNbHN0xuhqxS3R+1S5op7k9+a GiyaPucMyhIkvmDxeae+zHB8xraza4i3EwAA3EGw6HO5M8XSDLmOJTcw5Sa2ypaqsDLl5jSptk7T 8tEbqzkfbh0vOT9y5XT/lcj+gtMDBacd+acduZHusm844a99uHNlvU7LkWjYMmryJkttS1GYUhWG dLkuSywlC7/F7j2TLr3hYEassJUmHnmHbMXfP/SRp5PgRH7HZLDI8/QuWLOPhFETIMQzg8Xc284O Ft5yHOXU/IzdscIp0y/6yr7wdIecY9DpF46RRe0JpyvGiBbWoRm1dTee/5N/FMa3HE/V3lmPRZkh itMjKOvmfaqv9PRYlEzrsbBP77HottygxyL8y26qM4Nc59MOS4dDJu7X20a8gyzXeywS+vTXeyzs +ryWGduixwIAAH5YsFDaBzgSdabclNZsYkmMHCpVmFhSfXqTsk4hjXn/j/mfvDFRlTB4+dTwlbPD +edG87905JwZyjs9wU/I+WRnzIe7rsokmU2qtGY9W2ZKU1hTm40sqSlDYUqXqNX2W03hHGr8kmq2 3z9T2uadY9Ehk9rIW33lp6h+gsS6Pv9wyYl82/QeC0dNLBVKPs4mH29hHadyAEfnSQVzb3sHwcLb SzEtLrx9KFVFtPt7LCb7JNy61I/epqZrVKlkCu9i7rjxTM+55lg0kS36sXaLreOcp6fhHDXZYkiW RM2xOE7GCLHl+NQ5FsIh0Zc3mmOh5rX0px9siuIOiL6UeFOIvlD7wbQ5FlZZS6dvjoXMMWWOhXfb WcECcywAAODOgkW5pSNNZuDILByZlS01sqk5Fga2XM9pUgpVcmZU+JWI3e7KC305kQO5Zx2554Zy zw3kfGHP+6uz6sLliF2pUUfqlHIyWKRL9SxqQMTIlBnZcmua3MKRGirNHbesgM0zR2HnnnffOfb5 sWPvk23/oYuqMW842Hv8VMKFiA/e3jk9WOz80/GIL6IOUV0F70bwqEtI7OXUyMXOdyLOJGTXWebe 9vaDBRlZyDV3fyX0XWV6fcylr/qr9yfnWBz6MLasi7DxoqiVP4j6ks74Njbq1CXdTS48meuqECpY 7JCd+1R+wBcsqKtCcoX+q0IOTl4VMqhucci4uutXhbQMkkvll9LJCZjHk/r0eYbLMjvTO6jxlrmJ GlWZEix2zL4qZOq2LR/gqhAAAPhBweKyupUtM7MUNqbCSs2xkOtSFAaWksoWFSp1dmL0e8t/31X4 9VBFnKsqYbAwZvD7r8araf2lMe3FXx8I/EPmt2eq1RpOsy5NbmAqDAyFLkVlYqisqQpbmtScp2q9 jSqMddRnf3ni+F4yDbwTfuxCvriHerAlL/bIO+/uPvj5+fzsM+9MCxaHzl2I+PD93QcjzmRIfT9K MdZWeIH6JYydf4pIbZl729sOFkPVsdQ4yKlS/+9pjDSef4fqlkg1kLfNZfSoQ++8u/NP4UeiGGXW Mf9VIeHUdSIfRZ3PU93kdzLwOxYAAPAPHizSFZZUqYGpsl6Um1IUxlSFgak0pMh0qQpTrlRVU1O6 8ql//fqdNY3ffXRm+/z/Xvv7z9b9Ieq1p+q/C//yndVBT//r1asVVyRytlSXKtWSGzKUuosqQ7LC xFTZmM2GTLnl3h6YLxDkd/18nxv88iYAAPwjBwu2UsdS6lIUWpbKxJJZUiXGNJmBLTOkUvM39ZUa 0yefHlvy//7X60/874uHQoxZXxizojgfbX3td//zld/+8pOITyo1xsxmJVvWwpLrUuW6i1KN57e9 zWQ0YSq0bKX2RwkWeW0/3+cG/1cIAAD8IweLLI0pTW2gsoVUS/1uprItU2FiNWsZciNTYcmUm65c bVzz8rMrf/fP7698MvFgSOLBje8HPRH8h39et+T57Or6TLk5Xa5ny7WpMn2ayspWmlOleqbMkKY0 sVW6TI0OwWI2/O+mAADwDxssym32i2JtmsLIkutZZKRQGFMl6nSVgaHQXpTpUpt0JRpbIou9ZMGj L/32F0t+/YtXfvWLxQ//j1cWPkpjphS12NKkFoZYx1JY2ep2usREXXEqs7DlNrbcerFJU97ajSfj 55gtkCoAAOAug4WidzRTZklrpq4HYSpNdElLmtKQKtcw1XpWC3WJR1qDqlypy8rmHNuz5viW5z/e /OJf/nND+iVWsUKV3qRhUzHCylLakuUWprotWWJIU7QyJVZmkylDZlL2DePJuBHTsPU+nG9BVgkj IAAAcPfBom+MyKhTZstsmfI26tcz5Sa22pos1SY1qy7KNRyV+YqulafQ1tRVKwqSLNnnbNlnFVe+ rWmo5akNOVpLmsLAkuvpEvV3ipZUrYkpN3Fk1gxZ2yWpNV2k6Lut/y/kgaZ26Bm2rOPqM7N/O+vv tpC7JitAVgPXgAAAwA8NFmTLXyjVZTUZmE0mptRM/e/nMn1Wi/GKQZ+laGY21H+Vl38unStWyCRX kpsunmxmfCbOoYnVyi/SuV/lXeGI67myxgKjJkOnZZDZQqZnNhtYEmNWs4En1SFWAAAAPFjBgmSy DzAb5BkaW4pEl6WyXNGYz+ddPplw+vBf39/y7utPBr30ypbtQonM2ixQFaerii9ZpPW1TdJFG0Ke W7P0jfd2hn/+duS3J7++kpetbeWoLcnNLelaC1usMNsdeCYAAAAeuGDhmiC4cjWzWZWttiRWilb/ 6b0nlr26dEPAoqD5LwQvWrxh5QtrQpI5OZ0W4zeRJ775a2RXa3tiWtai4HWvhqxaFPTs8jXPLF23 6PcBy4L2h9METZe0lpRm+SWpAsMgAAAAD2KwILU6hjn1zdlNqldD9/3mxYBnVq6dvzyIXJ4MCn55 666FQVv//NlXxASxP2zf27vfJm+Ef/7F/FXrlmzdtnDVmgWvLl+4bNXTQRsffnHFK6H7Lzdr0urE rY4hPA0AAAAPaLAgKTu643N4jy9fu2DNlqdXbHhm+Yb5K7c8vXr7CyF7Fq0LXbdzf49jfNuON//4 xp/sDmLlzjcXrtv80pY/Uuss27xgxWvzA7eQt59YuuFvl3gtXXY8BwAAAA90sHATRGRC0r+/uGxB 0JZnloeQ2eLJFevnrQhZsHr7ks27X17/+t9YWb99Yv6/Pzqfxsp+IWTbS9t3LVxFrTlv6YanAjc/ tSzkuZWv/cfCFV/Ep7rvYBBk3G6UVtQ0VFSLBNq+sXt+Jka69W2+qR49KmGZFtM+AAAA/i7BgjQ4 PBq8863HXgh8YeXW+YEbnlqx/kmq32Lzi+u2vbRh28ode/7lsacffnT+8s1vvLB55/Obtr24cs2C gOXPr9k8b+m651dtfeyFFRt37nMMj97BLket/CpV5zhBTAwoaho093z8pFNVKO50I1gAAAD8/YMF 1dCPuT4+EfW7p16cv3TNwpUhCwI3PU2Fho1LN72+eM2mf3n0mX97fP6i4C1LXtszf9Xqg3/eu2r9 S88tD3xuxcZHnnn56GenR8fusNNhtFVQIb9GbeTU1zWorgeLYU2tSKRuuVovLq4QNVnaVRIJv0ZY 3Ggd8HSHuPutIoGwuEpYLJDr+8ephzpUxSKtolkqqBUWCvRUmug3C8qruMW1ZTUSTT8VLIol+kah sLCkqljaOUJuMtarEgmLq0XFnhWud3N0Ga+ShVfUFvClxkHP7gZaRbWiCoEw7/uynJLaxo65KgAA AIBgMacKfu1zS1c++sIrT7688tnl659dvvbltVsCt+155LlX/+O5JQFb/vjs2m0LV648duKdwNXz H33mqedeXVNefXc/Aj0+YBAXVkmaFFK+ontKKhnWCKoqdANkPBizSnLKpJYRT68GX0j9R+kTfdKq WlGHi8oGHfLCKm0PmTY65AUVqmtUd4nLWFd1tZVq7N02Sd6UHou8WmMPuQ9nq6BErB+h/lrQ2E79 dcw5NnX4ZmjA7qT+HdCKCqS9ZIGW+uqrNmp3DoO4QuuYuwIAAAAIFjcy4nTmfM8LCtn29EuBTzy/ Yv7Sjc9v2Pno8vWPL1u/ZOvux5eu+cOLi9duXbN5+7qcgvw77qiY5OxuEsn1nZ2a5oZiobHHPTVY 1DZ5/6eR7pZCgdkzhkEmhmpRB9ng68sqWnxt+URfU4VIMeAJFnVWbz2uNVfzjc7ZwcI3FDIxIOWL FP3kQbaL+EK+1Nw64JpeLddAh1UhlV8VVOeIWseI8WuSWr5xmJoRohaVqQfmrgAAAACCxS36EyYm TLZrGZeLPvj07Jr/fO/51/a8sHnP2rD33jsRmX6lwGS1jE/8oFEAh66hQu/9/0TGr0lrvWngZsFC dFvBotNf1NzBghhQeIMFtbnL3ma8WlV71Tq5a7ImwjJpa8/IuPuaNI8KFoS7V1vBFwvqJQKp1e4m ECwAAADB4n40YhYXSzo9acBlEdcKrK7bChaekYhG30iE6vpQyOxgcU2eJ7SO3CBYuIf6ejwzTcfM 4gKJ/z9i9fZnUEHB1aMS5dRRweKaVNTYOSVCzVkBAAAABIuf2ITDIhWX1TRU1Ij40vaB683zTYOF f/JmYVXtlMmbcwQLYqy7qaa6sKpB0T0+O1iMdOgFAhG56+IaqX7gem6wGyXF5cKyWkmTSlrs6bEY sUoKSmqpqZp8UUWjtnVkrgoAAAAgWMBtpJ8+aY3EN0ozMayvq5rSswIAAIBgAXfG1amWVAjEfJFE UCcWKNoH0EMBAAAIFgAAAAAIFgAAAIBgAQAAAAgWAAAAAAgWAAAAgGABAAAACBYAAACAYAEAAACA YAEAAAAIFgAAAIBgAQAAAIBgAQAAAAgWAAAAgGABAAAACBYAAAAACBYAAACAYAEAAAAIFgAAAAAI FgAAAIBgAQAAAP8gwaKN+W7gok3RIuf1h9QJYQFHCwbmWNlZcy40aB9T7b5xeaLotesja9z35/np yXw3eC+77fY3UP8tNODQ5e4fr0b39em6XeURwWu/EM94cKAx6cD24EWBIUd5PT95DbuLT6xdfySn 7aYvjPS2n6x+1owD67dFlA3ei7JM9H3Bu1NNvnvDpUdXBR/m+Utuy9i76mBmx40/DfYH7/hOc1+/ 2gZLDwcGLloWFq96kD/q7/ij7NbvkewjAXuS1Lf5WeRuyzkVFhQYSG4ivT8+vuas/5wfTf94qCb7 k1LnfRQsOi4f2BS2Y3vo2ebbCRaEIT824jth9120lG557M6f/LPg1u/GgfwjU58hQ3JYQPjcp+Iu zTgP/7DBoifzcPDaz0pbO3q6h3/6GjpVlyNPZ0gH75tgMeNl0Cemn47O0dybT4aa0yFBn/F9ZTXH bl4WuPac/9m5Gr12a6zIfePzcPgeN1d3cBIQLH5GwaIxdm3gQbq8p7tj8D45Iz9ZsLAy926KnuMz /EaPPwjBYiD/eFB4Rs6pkB1/k99OsLj7r+BuYcT6n0GwaGXvn/oMkS/WoFPCe/phOv08/MMGC+p7 84Gsnp/JEfz9g8WP+HbozjoYEMY0+F7PB3eHH9m87/rdmwZlZ3lEyOH8wfv6JCBY/EjBIvdOgkVl ZMCmaNH99ME1Z/3/HsFCHr95zgBxo8cfgGAxyPskZHeyacZTMiVYkC/fkAiemPlJWFDgfrppWuZw 6gvOHgoNWhW4KMC7hESKPC3lpmheY8bRPSEBgSE7Ii4byGJNzN3L/KstC6PrZ7wixMzP9q9dFRyw PuywtzuELGQ/U1Qcu3dTsPe710BzRsS+bQHLgteGnWA2D/oqedg3SOGsjAxaRlXP/zVoW+RV563f jR3CeOq4ggO27o/Mpb4tln8W7D+WwIAIPlVyWeRub+TqFscf9XT9bd0fkSqe0Wcz56lwtgmZp4/s WE8NB5DnQe2c6zzMebpuUD3vUe+I49d8d2TzquDDuVMagGFTeXLk3u0h1CnaH82zTh7vtKePcLeV x1FVCli1be/py2p/ATWnQq7np8GCw4G+T21yd5tj+KLUE7u3BgcEhx5OlV+PXI1MX50/SYoND5n+ 7m1jHvKfyVWe2HSD/d7h4Uw94ybeuYPkVgGb9kdmM4+u93Xv3+hApgc4p4EXeyCUrHzw2nejc/TO acHCbWIeCtkRIx6YEZf3J5Xnxx7YSW61bW8Mv7VNSL0eVpHViy3vuNlTRu5OnRu91zMqtONoUk3H XC8DZ+nRwNDYW5zzHlEy+WBIgP8luujdjO4bfZsMPlHu9L7Bt0XwCo6uP57TR9WkZupXiLlqK4oJ i6yh3kRntwcfnRxA8QyRHMjuufExTn6iyDNPHdy8/vr7aEcCNbDie/8GBgftOR5f6TnPN/lMuPmz PzNYDJKnl3peyJX3naDX+N/dVyODAgKDThWUkydtE/nCCz3wnf857RbTP9s/tZKLprSR1Idh6PUP Q2dNpL+Px/s8Uq/5zYdieSbq0LvJL2Y74yfHApxXo9dup1bubr58Njxs7apA6hlMnnwt3eAZ9Lw7 NgdTT/eBmNLW6U3RHB8jkx9lqUJejOddsPVg7FX/kzVXaTcohHxi+bGHQ8lnMygskn7u4FzBYo6j pvq9/M/d9UE36jt6xt7A/Uz/8yWNC/W1dlOqNPXtP0c4mPO8ed59NZXxh0NnfUjeqv6zg8WtG46b fZaSL+/91IH4T/hA7pHrr6IpfYFzPT7XmZxesc0xpeUJns/J9WERPFM3+a4J2xawKmTHqQL/IQ+q efFH922jWqLtB2NremYFC6c0YX/Q/iTvUzy73fy7BIthfsT6bWcbqU6b3YH+8zszWAQHbT0YWWwa cDqn/cmtid8TvDtO2O0kXw1JezcdjL+qaR32vAjIw3g3NqdZo66J3x0YfLTYczwdlw+QH51yp3PG C9etIb/arj2UVC43tapK6an+YBEcsiOcKe12Uru1Xj6wdf/ZYk13X4+aF7lja2T5oK+p8Hx6kq/g sLVbt/lapraMvcHej9GbBguy/vu2HUjgG7oHu+UZR7eHxjY7CbdTdG4bdYBksd56Dve0eooiHw8K z1D3DXarSplZ01udG5yKbl50REJBjYo8roKj2/3t1ozzcKPTNWf1vOd/feiBOGHr8PQzqc+IOMXk NWparXJmeEjQ3E/foOhcaEBoZE6jyaAqjX03JCi8oPVWwWJRYOhhtnyA/Kwsi1wbeDCzzfcJcmBV yN64UqleI8qP3bs+cMa71zkojw8jT7VpYPBm+73Dw7nettR8ERqw/QTzqsag4tM/CQ1YdgfBgjqQ VWER2UK11VSTnuQZgJgMFk71d+Tbkql2zuqHWxa843SBYZj4/+3d+1MTaaI38P/m1P5yfrP2h1RZ lbxMheJUSPHGgqoMvJXFGaZgYczAngxnz4Sa0ZQOl1k3TmmcHcGdA2MtMKugAyfKAmoMEqMJEIKE KDGKRNFEIOFiYzTv83QnIZfuEBAUnO+n+gcu6XvSz7efSydo0xfuJwVkXZszFGHcLWXS3OP2DKfM 31cnJ/s+5gv6vYPHy3Jrev3pb4PkYMF7zIN9dZKC2u7pELnwGb9Wyo/0OrwCV4qFXnUOW1SH7Q0H yOzeloMKGvrZaiRNH5Nha5kFn5/7TB1XrrenkK3NYTdDYK74aacfk6o2xwIpyUwNJQr1L3YPWRx5 t0hlFWdMLq/b+kudPCc2l9A1IfPZTw4WnvZKCb18SyVSNijsV+q4IpYNFmy0VRQWybj4YqAhJ9Ct pq/MLavTqpW0jBfLcg8mdBTwk52NBx3GWq8g722G66YjLWswOj3Tzu56lYhchciVIWTS5JHdib1N mhRy2uoUMp+s01+wOLw+z0BjYezMCpxB+umQazqsM4HgjL2lSpFUVEcELiP0HUtKX5XmnMU17ezU KvZFy1T+pfEvhKEXrlx18+Ck1zXcpSuR7ksrmPn3Osz4jXWifN2gPxRMPP8CwYLd8bpubyjoc3a3 9roE76z5j1v00/d1L00kvi61NHaRzGL7eWosNiw4BK+lJIBWG4YDTCREZoyHmOBAnYhcW1aYSPKq U/7OfySTgwX54Gt+cQfDjKu1kuQJeU2z1U+LP7VUph3gYoOz5evGtgGnh1y7TpeJ8hvNTFKwCA43 yvOru7lTwFtuvoNgQcK4hNzZrHBhbb0qOCVY5B61MOmtJCF68TJMr9/QaLg9p5mgLnarE+iskhae dHMXuwoxT+0lzYzkdPrTruPiyvU36HFlQkuNjyZHM72+aKTkqsSuvbzScKY29wjdToa8icvaZjeq P2Su1eWWdcwm7Be3CsdxBV+dEq0izj1i4q9DFjoUCehnTNMfTD8OAodLaPPom09pyFxdSQ9pHlcF l3z6aPFAciSTcBWIfnQzBIv1mvOwSSuV6YZju5OwefxNIapYU4jweje5O/GrHTngCp05tsBpEouz DxZ0wxIb/hKbQoJWfWF+LU8fT3qaYitk7+ajt+9cLxz2vlPglLGFenxTV8iblr14pbwNkoMF7zGn /Yi1sZKefHJVzR7BJga3Qcm+Cb1txUp6P01Kx+Kz3ghDbiSiRabQGyyx2kOeH91wchMvKacv3miu hIoN8iY5qWRLWfYztd4DmjEfVUSvIQLXhA3OfmKwYCy6fJoqKn7x0WKpSclVA8zGg0VOZRu5NSTX twM0ZNAihDFp6OzVnfScmTQ5STea0TdDvKMJPddc9Sd929BjGInd3SqjSZTsjjyaLOmL19/nCW2C 3KWV/wySHJOXcCM0TCtrBS5fCZcR9h273s2W9niopZeRLJYWX0jKtZevj4LQXkci1+p4mkIEggW7 ZINjc32t1o9b0qcvEuquiV8kN9x+vkvTZgqOlGvpeuYb08u5A84dijy+Jo+kvwsfycSyNf7BJ59c cTzd0jckT5dqcv8gVq5fqMmhnuvXFCi11wKZys2dDxbs3Tl3/0Q/HrL4hz8lWCS25CX8y9epVhSf pPfuwcnm0rxYhUdynbNRK5Ufd2YIFnSB6TW6SQthx62IpaKc2CTm7rpoMUzPDTm+Sr11uq2UvYaS oyk/4dywYZIWafsTlplD3n8W4WARYaa7SNKXqOoMPU5/6ntI4FBEmFlrl/5IdbFSSetducObHiz4 DpfQ5mXo/sJ4TW0n6ipUSnmBbJ+4bjCcdvqGGyXiOmN839g0WcGm9UzBIr46cvubL9VeiwWg0+5I lsFCeL2b3J3E3FlrjF+nNhUsSNEuZtvs0t8YJzu0BeLYJ0L4DclWUMUbbmbbK0UH6fWI/5TR1YkT /yjibv0zBwueYx5hSElP7ndnSDHpMx5RCsbcWA4mV6KgsTaXLcnYrlS9fnK1it2rCb3BEtKJnZap dLRYyKiRRYvGjeZynS3LrWpzrdDmhoYSmfpigP38Jl0WycaIDuhpDYFwsMh09hODxXQzbU/ZX9nm i50mGibYZiAuWESv7CTx0GBB94KmLvKzQtvj9pj1hWT2otRoS4so7tM6aSjkbgrpeVQkvm3oBfNr U7SMKWBH1TkNhQdiw+vCAUdPs05TWViklIjFhWyJwn8Gyadjf/I7JLV05LuMpHy03c2F4mqaJwSX xrMQ1xl67Z2NCBfMGfZ6M8EiEnK2VClEBZXas/2uhczdbniOm+BFcsPtF+pXvlHBsfG1NH7AswwW GY4kT9nKVeatlyPGP0vXC7UFt7FVrylXFRYpRPvZBofovM1tNbJ95GYglLnc3OlgQfO1eP0yQT6r sSOVXbCIBK/p5EV0REnhwVr9gC9zSSkcLPjGc6YGC2lK9WD0ZvGMSqLtp5U/X5sYsjtF5O7E21Ym 015jsggWSpGap0gTChbs3tA3vUYplZQ1O5JfwXco2Ep1ZV2b2Rtk6KaKNhcs+DdPqCQODusL88p0 F+yz5F1lI+Vu9sEisPlg4aN3S28bLAKb3531gyZ5i2ChTv6ExyuWyYewuN6gzo/VpW86WPCdMrq6 9aryxLuNzQaLSNjbUqYoLFGSd1rF0Q5Hxgu0p7WMfDTMJ5TRuyISKQoazQM6Say+QegNlnLjQd+N 5A4vL1pabDzXXJeafAqKFHJlpeYsN3wsLVgYa0UFmYLFBmf/LYMF3bFGebz9O0eluxZI34sKaTW5 FSYfW+52lnvbcBfxxIKBib4faK0GKefkTXb2L15ypyGvaR6cDDBhNoVzu897BsmnQxpNe7xngf8y kiFY8CyNfyEpN3W8wUJwrzcVLLh4NNylr1GK8qs7vUJFksBxE7772mD7BTpvZi44srqWbj5YCB7J TQULWiehKD3R6/AxbN3berAgRbmkXN9QJSNXZiZjubnDwYKEcXGZweab9bHTdIc6J9pdK7tgQT4k fHcbwsFCHW8zS7yI9NVJpHXGhQwLoS2Xick0qbZWqe88XcYWYMzg1wrNhS5NXnW3f+Ou1MEBst5a 4wJvZWPGS2fIpM2L1k6vF6Lph4IUCQUybaz+zpUQLJKOg8DhEto8gZKYnTFe6yX0YWCbtFObJNiZ rPWKWBUrO0pqg2BB+wAm3NkzGzeFCKx3k7sTv361xZfABgvyIY8GC6EdWT/ObCxIq1ekwUKipp3C SFCQqNK6sGURLPhPGbe60/zVmPpN1Vhc0+X+uT/LsVq0y6GqsaEqdpRo9UNZQ1NZvIJB6A2WnCwa c8nNHFlvbFDJhnM54lEm8eCRz6+avymE75qw0dlnK4H27Wd3jbHo8tabQqxcU0hZQlMIT7AIGbWy fXl1nWN265h7NiRwoaiSaXqcbWWK2F2Kt6UksSqbNjbFP1kkxsmPdrWUK3VcfQUpdXJquxPbN8+4 Bc8g/XQIdTYXvowIlXO8SxNYCK06op0AMjaFCO01b7BgP+nxTrWD5CqRepPG1uqfFnhQisBxE7xI brz9AqNCMhUc2V1LE4OFWSfhHdmX9PdM75/sgwUd8BVvr6EXjYRgUVBnnGOLdWll50zGcnNHgwXN rbHrRbTtShMdgsE2G7d5mIzBghwalUzd7p71B/yJXXiEggV7iSw+7SQhxp/U38uuV0pza9rMk16P s7+lqc2xkjYI09tRmiMrPWlyzYX805a2c6bZWOdTTZ6qWMX1yaJvrFyVKj6yztVeW/rnjuSOQuzb +iTbzZ5xsh1/SIgPBOfcg+c6zOy7hJ65/Lpub2DWF0qK0kfqDNdoF0i/zVCcU5bUiZ33UITd5L68 +IRlds7rMBoq8sXROsyU4yB0uAQ2T6gkpo8uqGpz+AIea5fuoED1XSRkPqoUlTR2j3k9kyZDlYwU pbPxz6S0usXqdtm6dOXK3JzMwYK959uv0LTbPV63ub2uUCzOFCyE17vJ3Uloe6qSig7qB8l7xtar L5fti3XeFNqRxOM8e7FaQu5Te+yeGbf5gl5v9CWNCmHYCpVffJsNFoLvKGMtuzrn7EJg1tbVYvTy fByyCRakUC/Rk4X7/YHgQohJeO/Jj9tTy6U5+pGR5LM9qNhTYNTIJHmyeAcIoa1NPg8WXYGqokqx fkHcaC5ayfF1r2eO3cjYNrKfX0XFWZPL67Ve0BXmKBu4Apj/mrDR2afFJDtui300k4cc/5TOm+aE zps8wYL7WZpbUlZaXllaVa2pbx5M66I/+0ulpLy6OF83GC+3yHmUVur7nB6v09hURq4Sg/EbGF9X Rb5MUhBrB2Gjs67P6/e5B8/UysXiaLDgPYP006EQHajrtPn8fp/D2NbtZBKvLfyXEcFyjm9pQgtZ 6Nfk0S7JDq/XMdCsJkc1vfOm0F7zBgv21MiP9rumnWTH6fgXGiwYV2udtt0yG2IYn0mnjNVWpl+f BY6b8M3qxtvPHywyFRzZXUsTgwX9Wdlg9vlnAsGUnJTw90zvn6yDBa3ty6/tnAzMui1tWlVSU0g0 w5E8p8jV9vszlJs7GSySH8/HvYd6qmkAJG8EZ3NxDnf6MzWFkJwuEseHbElzywz0KiP0JiCf1R4d HUgjVRlSaoZ9puhIznyV5oyFjo9Ke7oDHTZTphDtp6M9o6+JBQV67WBiJ3K/ONpFn5R9x5WitMHu nvZqOvCSiwVzlhZtWW6OeJ9UWXqkw8qd5pDdUMWOz9EmtrUznj6yjdENSB9lx3so/MOGigPsAMv6 LsfFOkmsxSfpOAgfLt7NE+yUMNPfQI6PWCZXG4y2jooc3mDBjtJkx33tI1t1JOGBUSvOtholOypJ 1+0mUW+DYMEOndIVF7DLqe8dPF2WMVgIrneTu5NYcFoMNewwM2Wt4YI+3hQitCPJxznk+EVHx3/u l8rLG7snQynPsaC1aPl1Rv8mg4XQO4odZhYdD1lSq++LFmJJb4NsmkJCJm0B22QZrcNXai54uWBR mB4suNI3oaMleYvuEykSn4MnsLXJCa9ekToWNONcDO3UJhXFxiKKDlS3sMVkfNgbOV/rzaZC14SN zv6skcxFNoDr9RxyXYgdXlVsLGumYBHxnGOzSHywK5kOGFIfH+nrKN0vlmgTO7KE4sOG5VV6dpRy UrN9bn28k3vIca62UErHQmvb7cYmZTFXQPKeQfbTwQ3GpktWc2/IhMsy/2VEuJzjW5rQtSg4xg0a l9JD3dMo5xluKrDXvMGCnJqBxujg3tMWz8Xa6FCFyd6GGnqF37c+Apb3+ixw3IQvkhtuv8BzLDIU HNldSxMPeCRAR3uRt31Rozmpg2rK3zO8f7JuCmHc3V/TZdLrntliUKUHCzbmSqPZXaDc3NnOm2/H 21FR0hjrJxJh5uhnZst9Q3aGr60q1vj6Wz8UH7SEPhYfLlLGKyvirQzhEB2Qlv3jjN6NsNNQUmaY jA+B8XVqZLvugcq+jgoxTQzcVjKTBtp/k+uWsfWTY+cbD7IHz+AHeX2Gd9rH4i3ZGnPpmGzusxTy kKCaV905s3sORcjVXlvM1Qj91g8FgsUHgN4TF5+0R0ck+Z1tNQp5k2V3pVc6mFapG/BxWxV092qL FJq+Xfb0Ve7BXFKV5kRzy1mDtow+4oIcya0+tp/x++jjSSQH2zzhvX8GP8jrM+ylYME9Re4AbbjN zVcW1+hTavDe+/XDeK7f846+pWKXHwoEiw+iymK6t0GtzJXKJPmKXGWl9qxpdvfd7M5eM6hLFBIp +SAo5AdreZ4vuAsOpKdHTzaStteIZWQjGy6kDyDfREwpFUtzDzYavR/IGfwQr8+wl4IFAAAAIFgA AAAAIFgAAAAAggUAAAAgWAAAAACCBYIFAAAAIFgAAAAAggUAAAAgWAAAAAAgWOwoxtyklBxse3dP 70/7rjUAAAAEiw+Hp0evPWPZwcfXh536ooQv9EOwAAAABAt4i2Bh0eYhWAAAwIcZLBhPT2NpAf16 +EJ19NuCzEdkkiOW6P9DvWpxrBQkRWBZm7VPX5ovlXxNv3GYftH7QYVovzRXVdc2lvadW2Hf4Ilq uVQqkiorjvfT79rx0m+KWv+S3IVetVRlmKY/8iyK6dfk1HaO9WpVMtEBveNhR2lOWdtM0rwtdF6G /YZ7mYj9hvv1LzyiW9tsvmZQK+m/CrVd6188OGcx/FklEUtFBWW6i+6Ub0ii32qv6Q0mb3/p0S5X iGfvCvOkohxF4n/J7PLjJmtrXXEBnVHd6kxaPve1iiJ22s9uP9nO/EajrUNTsqnt5DlxkRXv4Fkd PRTkMJY1GqPHKtBZLtNetLRoVbk5UklRbac7wB4xunma9vXFZjqb9FxU6i82aw4qJVK68Nj3uEb8 Y10NNWTJYrqzZ+2x74dkv5KtQCYSxXa2vMO/0ZEHAIC9HyzmuipylA1mX3DBa73Qxn07X6ZgIZUV 1rQ5/AxDyoSZroqCsoY+t38h4DLqCgt0g0mFUcjapJRrOqwzgeCMvaVKUdxKlu5tUUkrLkS/QznY Vycpaaa9GXgXRQozsYwUcp2TIbo6UkCqpexCYvOqmj2kYOury5WWNRidnmlnd71KROZdiG3tfmnh 1720yPd1qaVSTR+7fWG34aCi4rTJ4w/5nR2aA0r9GMMbLOgqCuq6vaGgz9nd2utiUvdOpNR127ye yX59uUxS0zsbm32fWKk+5wyGI/4BXa64stOXdszFSr2TYcLr25lbru8ec7vMhmJxdtvJd+Ii0x3a I21Gm3t2xtlWI5Nw8YgGC/G+/OoWW4CEoe4amSiP5DzTLMNuXk519BtBM59Nei7EuVXN5jkmEg6Y m1Qi7sRFQuaTdfoLFofX5xloLCT7NRk7O/RL5EMk6xi/VsqP9Dq8oQ2PPAAA7P1gMd1MqxCSv+03 U7AgL47VGTiOKwtPOmMz+ehtsTlhKf6uirza7oXYr8O0toMUvZ6zqliBxwx+LSs87RZcFC3MpOqe QHyRQWMtFya4eYvPuLmkUnw2tgNhp14pLW33xWKQzhwtuULdNdLCk3RdzLW63LKO2YQYkbDqpGDh v1AtKjE4VoQCmaLBFisXZzpKY2Uqnb2mN3rjHjZppTLdcPK8C70V4uSmEGmdMRSrXajKbjv5TlxS FcM1nSSvkW1hIcEiIZBdrBYV6K1cpmFMmhyFzprF2aTnIrqD0ZOb+GusNqblYPTgu04qRVpT9OiY ddxZ2/DIAwDA3g8WkYD5RJkkR1lR32GONSJkChbrvQF8beQ+WCwV5cQmequdcAM63CjZL17/L5m4 e1xSInLlKGPR5XOFk8CiUgozujEmbb7K4ObmZX9YIa+JFo3RjT8qE31tSttaxqiVyo87ozUK+6WJ G5Zbb+ENFpGQs6VKISqo1J7tdy0kHzayd+I6Y3x3aX9MacXFUNLs9O/2hnyp9tpGwWIr28lz4uj8 XlPbiboKlVJeINsnrhuMBYvSc9FqE6avjrYrcasLW3R5XIDY6GymnAs6o1QzwL4gHHD0NOs0lYVF SolYXMiGPMamlxfUds8wkbDPeESZe8QUzOLIAwDABxAs2LvYaVNbfWVujlJrDGwmWKzfB/MgRa9U N5he1R12G0pk2mtMhJQ9RQa2hBNYVHqwiDDmekXhaTdja5RzMWWlXy1WNNhSgwWTqcBWitSxgp9P UjKIMLPDXfoapSi/utO7YbAIbGuw2GA7009ccFhfmFemu2CfJQnH1pi7uWCR8WymnAvGpM1h9yvs 7VQr5DXNg5MBJsxWt9BqJPr3ljJFYYlSXqSqONrhWIhkuUcAAPAhBAuO52yZqJzWVFvrFSJNf7QA mGkr5Q8WEWuTgns9P9qTQKEb5mlEd51RkVtV60ml/IQz06J4gkUkMqaXlxi6T6qiBVjE21KS2BTi NihjhahAgR0cqJNIa40LWQaLaPVAp1rKtdok7J0ytSnEGckyWKgT92ur25l24th5440LmwsWG53N 5HPBkLPANYq5mwtzarsT23HOcO04utw/96dkiOz3CAAA9mqwCA4bNPVdDl+ICXm7tQrJ16Zo3wJp dYvV7bJ16cqVuTn8wSLi7SjNkZWeNLnmQv5pS9s5U3KxFDIfVYgO1HXafH6/z2Fs644PjyCl0YHq ihJlw1jGRfEGC7bCQ5LHtoOw/MZaibRS3+f0eJ3GpjJRft2gP1OBHWGchhJprrrN7A0E59yD5zrM C7zBgnG11mnbLbMhhvGZdMpohUTC3ilFJY3dY17PpMlQJZOou2Yj2QUL9o/Fp52zPp+f2eJ28p04 xnxUJqlqc/gCHmuX7uCmmkI2Opts5025pm1w0usZ69WRDdP2+2OJStfn9fvcg2dq5WJxNFiQDFGi J1vu9weCC6HoieffI/aJZKpmFwbcAgB8CDUWfnvb0Uq5lB21WNNs5orkFWdbjZIddqjrdtv1SoFg wQ1QLFOI9otFBWWaM5bZlLKB8XIDMsnC5erG7slQQr2CeF+8C6HQoniDBdv9U6RMLIdC3ODJfexw 0/gwSMECm9Y3WFq0Zbk54n1SZemRDqufv8YiONnbUKOSiOnLosNlk/fOyA5G3ZejIAtxhPgqPHiD RSQy26Oj41SlKsPYVreT98TN9DeQY0iPtsFo66jI2UywyHw22XOhPWOgY2JzFMVfx4fXhhznagul UlF+mbbdbmxSFnM1SSGTtkAqEsfGmuYoNRe8Anv0zh91CgAAOxgs9p6QUSuLtYPAuyIQ8oReba5X VrTHRtmGQ67WytjwVAAAQLDYNYJ+n6tHJ8+r7vbhLO/mYEE7WxSftPu5JOF3ttUo5E0WPLMCAADB YjdhR16ICir15gDO8e4OFhFmurdBrcyVyiT5ilxlpfasaRbVFQAACBYAAAAACBYAAACAYAEAAAAI FgAAAIBgAQAAAIBgAQAAAAgWAAAAgGABAAAACBYIFgAAAIBgAQAAAAgWAAAAgGABAAAAgGABAAAA CBYAAACAYAEAAAAIFgAAAAAIFgAAAIBgAQAAAAgWWXry9BmZ3vHOrL165Z5+QCbyA04tAAC8G6Gl pYlJ9607o95Hj7enOBsdXW39n/hEfv2tB4u5Z8+5Ap788C53ZmVllVsv+WGbI8vaqwmX2zY6vryy go8QAMCecHfqvuve9E6v5cX8ws1bNtNNKze9TbZIDBO808tLF98szP/mgsUzf4Ar3bmJ/LqJmV86 zzn+u8j08UemP5aP906s7YpgsbK6Ouac5N4xCwuL+KwCAOx+i8EQd90OvNjBknhpmVi5O3UvHiys trEtL+3V2Chz5UqGaU9UXWxzsPAHXiSmCm4if8wyk1y0qz66+nHRncb/vv1H8kPBuDX0voMFeWve HnEkRlFu8j2ZQ+0FAMCuNXXfw123JybdO7SKYGiJFBB3RsYTs4XLvfU6ktdzc2GvN8O0J478dgaL eLmePmVV0oeHvrn+8Uc3Tt4Ik5+tx258/NHNv0+8eZ/BguTcm9b1Cq70aeferwAAsDUMsxavruAm 8iv547bXiFjtY9zy49li6JYtGAxteZmv5+czN4X85oIFV7RzU7yA56asZn7j/mH444+uaX54sRxZ G/rG9PF/jFwNbHLt2xssrLaxDKmCm2yj4/gYAwC8d8srK2POyVt3RoUu1+Rf5AXb0jKysBhMWRGX LbKuoRcoBpdCOx0sVlZXJ1z3HM7JlIncJ29X0bkjnTe3XMCHAj+Xmz7+6OqnBy1//I+hvw6svKP1 Cnn02LdhsHjLrjoAALAtFhYWs7liP99Uzz8+L+YXhq32lMXeGXEsLS+/5ZLfvHy508Fibe2V0JFh 1ranUmdXBYu1e97Gout/LLdrCq6ReKEqdzvfex+LJ3PPNnybjjju4iMNAPDekdCw06ki8GJ+6Nad lMVabWPB0NI27MDr1++gKYT3KL39kdmVwWL+55JYh00m2PufN0i20JxdzHaNW2+C2Yg/8CI+lCg+ KoQk1kn3fe6PQ5Y7+DwDAOzybPH2ZSdZwo3h2ymLtdwZWXyLfhUpVn9uEwwWP7ft0FHaxlSxu4IF 86TxP65+XDQxwtD6oMfnbtM2kWPPN7G6LXYazcLCYvA220kncbgpCRzoZgEAsNskDuVL7APx9ku2 OyZSFjtstc9v62MIVjs6BINFR/tOJLDtTRW7rMZipe8/aQcL1cGRv35jV5OQ8ZH5rzeYbCsV3mKY a1aWllfS+1I42OdbTD94iE8yAMAukV6pQCbz8O23XOziYjBlmUO37ryYX9jejX/Z1SX4dKwL57e9 diew3dsf2XWdN+d7/2JTF1z/+KPrfzw48vf/DW6iI8mz58kP5noeeAdvXxIs7GPOV3iCOADA7vCS YQQ7JzLM2yw5pTs/iS/+wPY/eutlT49gsPj10p44BbsrWLylp7FHiT99J48S9z56TILF69ev8UkG ANgl4mNDHs7Mxq/V2/Lo5NHxu/FUYXdMbHsLAoe5clkoWJB//XaDxatwmCvgyQ/veH/ey5efAQDA rsoWWf5xU7g88eDhzPxOfrdDeGpqtaOdt4MF+ddvN1gAAADAbxOCBQAAACBYAAAAAIIFAAAAIFgA AAAAIFgAAAAAggUAAAAgWAAAAACCBYIFAAAAIFgAAAAAggUAAAAgWAAAAAAgWAAAAACCBQAAACBY AAAAAIIFAAAAAIIFAAAAIFgAAAAAggUAAAAAggUAAAAgWAAAAACCBQAAACBYAAAAACBYAAAAAIIF AAAAIFgAAAAAIFgAAAAAggUAAAAgWAAAAACCBQAAAACCBQAAACBYAAAAAIIFAAAAAIIFAAAAIFgA AAAAggUAAAAgWAAAAADsYLBYvaEKPexfDC1jwoQJEyZMmDDxTpsIFszFfyMTshgAAABsQ40FggUA AAAgWAAAAACCBQAAACBYAAAAAIIFggUAAAAgWAAAAACCBQAAACBYIFgAAAAAggUAAAAgWAAAAACC BQAAACBYvJtg8Sr0eubiq5Gv1q7/X8b4e+bS7+hk/D35lfyR/Iu8ACfm3XAtTf/0+Jda17f/b/SL QnvFe5nIqskGkM0gG4MzAgCAYLEJbxanSHSgMYJdlOB06XfkZeTFOD07x7sy8+39U+8rTAhNZJPI huHsAAAgWGws7KzfIE+kTWQWnKGdcC1g2W2RInEim4dzBACAYJGpooK2emwyVXATmRFVF7+pVIFs AQCAYJExVfhv044UW0oV0cn4e7IQnKpt4V2Z2f2pgpvQJgIAgGDBU1fxtqkini3edb2F79djnxdX HDvvfV+nZm2q43DppzXfDj7fxoXuwn4VGfpb4PMJAIBgkVw2brUFhLdNJNu1hid/qPykqCRhqut5 vNkDE37Y/l/lRaW1rfd2+AxwW6s6fH6WHrAHl44Vl3xSfKTncXjN/vfaopJybY9vu1blWpreK6mC mzBOBAAAwSKhxNx8b83t6csZDRblVUeavm1ip1bb/FaK/LWl1Z0/AwnBYm2qo7r0k6JK/UCskmJt eW0bV/XT419SSu4vfI/mX/ztY/rzoWP+xcdzTfTvzr9dXpz2LD3yBP/13Tj5V01zcPFxyDUemrbM 6v9gr/jYfe0x82ic/mWk1UUWMj2/4rIHXVOhoRNOutiyR+NLSxe/GKn44pGVzPX41Qqd3d/+xdjh 034XXfLSyD/cNewGpM6bOJENxkcUAADBgqKNINuaKrgpqwaRpDqAhOqTm/rikk++bL3S/hdtaekn xV80nb/HFdvLU8YftV98Xhyv4Tj08zjzsP1L8nNtC1lh4IpW9Ulxfcfl1qaqzz4p/kz7XX+sFuGp rf0vh6s+Ky+uPPxdz/0l7o+rvhutTdWHyos/rdH+aHrAppPxls+LVNpW85Xv/+vz4k9P3VpN29op 2w9fkB9qfxhd5v5DZyEbfMlHq0/IxlScOm/8SXuovKj08y9bLHOxDWit13726Xr1zJH+BaEDU+v6 Ni1YjM8tDx0brSgc1V9e8o8/JcGi5sT8owFPLflvpdfqeXH2DyRYLLhaSak/crh54dHle4dIsBj3 n/p4fSEuy8ND5Ic/PBwfnz1MlxAYuTE/0hoNCrWtQVcrDSgVlY/Hp+bYaHL3vH352uHR9HmTNo9s MD6iAAAIFhR9XsUOBAuy2KxrLD6vPqb/9i9k+vHyzHqwoDUZ9T9+9w0ts4uPDc5HIku3fywlP3/1 06+XTtEKg0+1R/5uehxODRbk9aX/pf9eryUvLvqMTQarky1/IlHg8y+//+l7usDPv79FMsHCrVM1 5MWfHfnxB/bFVa2Ta7GUUFRa/lmd/rufY7FgfWtrvvyKvuCzHx3xOorUYEFmrzj83Wk93ciSmpYJ 8hLf+a/oz992XGk9xs7+zanz48tCByb9KVhf+EYsL6yX75Os8C8SBewkWIz+7cbSv74aZV9A04b1 u9FYsCCBwDsyNdckECwOfflk2j5TS5YwMH/+q5kRy8Oa5GBR07zo+sddbq5DJ15MX3IfSp037dlZ +IgCACBY0GdrbvgUrLWpCb6Kjonw4AbPztr4uZypfSxqfhhPCBZHrtBmEW9HtYqtmQhHpn6uJS/7 9jopj5//+g0p+0/dCkci6cHi01M3SJgIO9gKBu35mciSmS6w9HvL/PLy0kwPrdU4ZVt7zr74i5/s C8tLwcnWP9G1TIWjKaG0yTSfeWsrf7wVFAoWZEdI6li78ZfyaM1E0HSErOtPHWT5ETuNR192ZeqQ kd6JgQSLgUcXb8zpv3oydH5miAaLsXZ76GIl94KRw+eXxk8nBov716b8p1Tua4/XnkyFpsf9bZUj bHPGqmtqddHzov3LUfoa+9NjH9+9aKe1HQnBYuTwP0JkadFgcfjZ9IDnUMq86VuIjygAAIJF5PXM xY07Y9JgsfjmwV/DdxOmiT+tGTeYkT7zO5tgIdAUUlRvog0Wsz1fkiK58icSLOb7m8jfq1oc888t 35EZv6A5gC9Y/MgGjvsttMFC2+6NPO46nNRFlFv41M9VKX9kZ1xPCULB4pD+h7/Qqo6qv0+u8QcL dmMia7dO0WChvbJA5m05RJbf9OvMwlQH2ZjyI4MLGQ4Mb43FgOfYPwJDA37jV9PXYjUWtJEiWmOx PJRYY/GHhyNTc8d4ayzKHrKVGfZDX809mlsaty9OP15lG1kSaixOL0yv11jMT1+aSpm3AjUWAAAI FnwVFlm0g7DBYiZ889+3vzVkk8Eisnaf1itEQ4D2h1ts2ZxFsFi6ztZYHLtgn5gcZ6epmeXIU/bF lad+HY3+cfze86XIhsGihnatCJi+/YxduGctq2ARicwPNsW7hnxWf+VBxt6mfH0sRgamD3359NFj Uq7fZ4OFvebEi0c3uD4WD0c8gb+t97EYPdy6+OiyW6CPxeipy0vWE+PHzget341yvUGnL987lNTH YmZ86lm0j8X4UkIfC25eRwX6WAAAIFjwyGaU6ZaDxcbjTtNHhZy68iAsGCyWbp6iNRbf6I806b// e8f5K7YHwayCRWTZQbtblnxe3fRjS8uP3x75cSBAFr1wQ8+2etSd+uHvP31ff6zFvhzZMFjEYtDj S4fpcNNvrjwOZ1Njwf79M+0Rso/f/9T6zysDE88zDCPhGxVCg0XheNNXzopYsKgoHP/bpdiokGMJ o0KmlqYtj5uio0LYppCp0Pj5e/F+EjQljM/1jc+3sS0gXPVGU2KwINEkbVRIwrxpnTcxKgQAAMGC fWUWD8Vig8Xz17aCtcG86DTwf9Z+zephWdkFi4Sp4ie7cLCIPL1y5FNStK+/vvirnsfZBAtSyD+1 tf7lcFVFefFnNV82/Xxjhi3WVx8OtDZ9eejz4k8/r6rTt95+nn2woNUndL2ffzv4PIsai7XxltrE LacdSG8Ldt7EcywAAGBvBosNv7+Uv/PmTHgoiwqMS7/b1iOwduv057RjJlccBwa/pQND2P6bux+J R6WfVP/zIfvL8ngr7YWauf8mnrwJAAAfcLBYfO3+71cjsclWtXb53955sFimgyxUNd/+03TLbrvc eqy05JPPTtmW9sTZ83RUqehA2cu3HLfMPd/96ZOi0sOZn0GO7woBAIA9GCyybQrZSh+LjZtCNuup pbWePjKrSFVe+qdj3//TNre2V07f8lTPj19+8XkxiRdsW8zle8sbzoNvNwUAgD0WLN5z503Y49kC qQIAAMEiyXsebgpZ8K7M7ML+FmST0AICAIBgkSrrB2RtJVhs/IAsyJprafqnx7/Uur5Nf3bWO5vI qskGkM3AGBAAAAQLoSqLLB/pvfjG+9fwZMJ0t/7V2z/SGwAAAD6oYJFFawj/d4VEXr4e+Xe0gwAA ACBYJHmfX5sOAAAAH1iwIMLO+u1NFWSBOGEAAAC/0WARyW7cKUaZAgAAIFhkhTaIZPGwrGweirWp RpBwcNZ203J58Oblm1Ozq9t9zFb9077okzkDk5aBe0t4GwEAALyLYEGzhf/222YLkir8tzezyuDE DYttjqFVJsHg0pvtPmbPJi/bn4URLAAAAN59sODqLbbcJkJm3HSHzRdTfbdm+OopVtw3rVbX1PBt e99V68ijp5Ojoyazpc82E2TDR3hxxjpk6btu6RtyTi++pn+am+yz3psYcwzdtFwemqZpYvHh0OD1 8303B8yj7kUaLPpGp20Wy+V/Xe9zPKMrXXsxabX03bD2sS9Yr+Z4/mCYLPzqzV6T40EoWq1ivWm9 OmS59L8D3f+6aZvj2wAAAAAEC15b6Mu5td6aa49GL9unJ0bsV813hu4+S6ixWHEPXb96P0jiwdrM aPeA49EqW71hsjjmyQ8Ljus3rXOv6BLmnJev3wuQGeecvVcnn7wkf3v14Nb14Vla2Icfj15KqLG4 dPNBYI0cndmhf9mnV+l/e21P6X/XmLXEypLl4DytQ4kE71l7HS/IAh/dvjH8mK5uyWO/em+JfwMA AAAQLDJUXdDnW2z43aeXfkdetuWRpasP7nSbpp7Q0LAyfevm8OyrhGBxc8TP/uifujz0kG3DIInh hnWOFPjTA1enomX5m4WRq9aJIBssbs1wX0n2ZOyG6QGTHiyiTSFvgg6TdWKRrP6p1WQxOR7OBl8l b9er4NzMhMM5PHSj2zq7Fnn9ZPSm6cFKJPJ63mUdcAX5NwAAAADBYgOvQq9nLpLoQNtHjL+nOYNM xt+TX8kf6RO73+7ZmmGfozdW8AenrAl9IASChTWrYPHMcTNTsIgEJ7hgQWd/Ne97MHz95vAME1v1 6ycOy4BjNrD6OvzEcYkGi0j4xb2rJvvQ7dEhx8x8OIJgAQAACBa70trT4auj0ys0SUzfuml98jqr YMG2RNiiLRGT600h6cHiifOSJdqHIz1YhJcXAi/ZrXho7x31x+pq2PoMGhReBSat3bdosHjisNqe JXSk4N0AAAAABIv3bnXunumGdcBkMU08S+jFmTFYxDpvXr5+M6HzJk+wiKz5R8w3Ll+/M+F/nR4s Vuemh4asV83WPrNjOrieG+YfjPYNWgZujo5MOvrYGovVmdHef92kXTVN1qu2e7OrfBsAAACAYAEb e7PgMI9yQYXtC3J9aOYVjgoAACBYwNa8euYavTpkN1lHh27ZhyaeBlFDAQAACBYAAAAACBYAAACA YAEAAAAIFgAAAIBggWABAAAACBYAAACAYAEAAAAIFgAAAAAIFgAAAIBgAQAAAAgWAAAAgGCBYAEA AAAIFgAAAIBgAQAAAAgWAAAAgGCBYAEAAAAIFgAAAIBgAQAAAAgWCBYAAACAYAEAAAB7PFg4jitF 6t5g9LdAZ5VUctTCcL+F3QalVNPHRJh+jVipn9zidrtOKkVVXf53dpysjbl5OnN4955I/4VqUUmz a3duITnpKpn8hJ3J8JqQu/NopTxHKspTaVqdQXw0AQAQLOKCPbWiA3oHV8gxJq1UvC9e5oX61Tmq lunIpoPFTFtpfmO8aPecVYlqenew+Ak79UUqwySCxSYPFL/A4Emdvs+X4RWzF+sq6rus0z5XX2Mh eWM48dkEAECwiHM3F4qru7n6BKehsLy2Ij/266RBnqcbZDYfLJwGeUKwIOWo5IhlJ8tLizZvTwWL i+8rWCQfqG3gbVFJ1T0hfDgBABAs4i81aaSKBht7J9peWXiiv61coTUz0cqMso7ZCBssclT6ayZD jVIiluYebDTGbmj9Y10NNarcHLFIqlSftQfJXBer94nE0alAbw1HmAFd8Un2rjbsGzxRLZdKyYtL j3a5Usoj9r+FeVJRjiLxv67TKvlxk7W1rriAzqhudSbV0nvbivfHVrefrV8hwSK/0Wjr0JTIRGJZ obbLEy/C5yyGP6vILogKynQX3Sm1/en7Er1Bv2ZQlyhE8bWIa41M0r5UHO+fDccyTVmzmbxembZq n0mvpkdPotK1NFXGg4XQSnlPlceor6BLluaWN3ZPM4Kzk81QNXa26kqLZJIcRbG2wxHiOVCMz9J2 lB7wfeymuqKHI9BZLi0959tgd6KHrFct3d6kAgAAez1YkJvOg9KKCwEyk1Gr0PSFHMeVhafd5B+O E8rceramgdZYSEVF1YY+p2eyX6cU59ZzbfAh88k6/QWLw+vzDLC14mwZExyoE+XpzCtMhCuHVgKz C+zf++okBXXd3lDQ5+xu7XUlFewha5NSpNR127xkFfpymaSmdzYWLPaJlepzzmA44h/Q5YorO1Pq 6ee6KmiFPMPES/f9pOjVd4+5XWZDsVhKdooNLm7DQUXFaZPHH/I7OzQHlPqxxC3g35eIr6siR6kb 8DHhkKu9OlelH5z0BdmtlWs6rDOB4Iy9pUpR3OqNr7rw616ainxdamls1YzbUCLNVTcPTnpdw126 EmmsvUlgpbz1HGTfc1TaCxbXjNfc3txNc5HA7HQzZMUk7pCXLDgNZVJyHpm0A+U3NmpP95onvbOT vZoD0tJ2H0+w4N2dqAB5w8iPmtDHAgAAwSKJ+agst8keCTsbiirbZiIMKf7VXf5IqLuGCxxcsFDo rNFimPaZ4Goy0gJKtHC6RoJFY3pjBNu3wOBY4dsIUublKBpssZJ+pqM0VkySYLHeRSNs0kpluuHk eRd6K8TJTSHSOmModv9dJS08SXMSc60uN2GzyWILTzozhK3ovgzrJAWN1mink151TnWnn+xJV0Ve bfdC7OXD5M6+bTa6ap05uhP0AMZWrZNIa7v9icchvSkkYaW8m6SSCm9w8uzJjUHMQJ0kj92qlAOV gIRIkaY/mB4s+HYnuhfG2lyl3opmEAAABIu08r6SjtogZfkB2nJBC/V8nXnFqS9SNoxFYsFi/Wba /0ul6GCbJ1rSBxw9zTpNZWGRUiIWF571ZggWkZCT3NyLCiq1Z/tdC8n/Gm6UiOuM8RoE2s1QWnEx FA0WmniwsDfkS7XXNgoW68UqY9RK5ced0ZqP/VJRzvoUrY+J492XhX5tgVJ3jdboeC7U5haxHV3J 1u4XJy4qGhSEVn1GJSpfzzRJwYJ3pelWyCmQ6axpf+edPaWXyaShUFzZOZceLJhZa5f+SHWxUinP k+6LjtxJDhZ8u8PV5LSVy9C7AgAAwYLPmF5eoDcP6HL/zN6z0qoLlcHWqyY32SGBYKFig0XY26lW yGuaBycDTJitGzjjzhQsuMJsuEtfoxTlV3d6NwwWgW0NFokDa9NLaIF9iTCOEyq5UiU/oCxW67me DXRrpWy31hTCmYYEC396sBBcKU+wUNNKo+y2OSVYkPMrrqb1K0kHinGdKZMo69rM3iAT8ZDos8lg YTyh7/biUwkAgGCRjtbwVzbUl5VyHQVoESJTNzUWlhiid9VCwcLdXJgTCx+RhILNrJNsMC4j0KmW cj05otjm/9SmELYUyyZYqBN7JwgUh8GBOom01rggsEVC++LvVR9oNKdkCLq1Ct0wk2WwoN1gaaeT tGAhtFKe3EN7aaT+V2j25GDhOVsmKmJPZeKBIkeyQKaN7Zhr08ECAAAQLARv1kmhJZPkRceGRNjh IZI8mUTbHy12hIIFW/zr+rx+n3vwTK1cLI4WbHQIq7LB7PPPBBJqCBhXa5223TIbYhifSaeMVkjE 0435qFJU0tg95vVMmgxVMom6K955c4Ngwf6x+LRz1ufzM8LFIeNke1CSW/RAcM49eK7DnBgyhPaF ZAhppcHm8/sD/oVQtH8o3VqF6EBdJ/27z2Fs6+aGqgiteqFfkyctPNrr8HodA83qgtjDQgRWyow1 V5TrumeS9nL2YrUkR6XrsXtm3OYLer3RJ7jNbOfNipP9dHV9+lKptOIXX+qBWnHri6TFJyyzc16H 0VCRL95cUwhtIZJVtKPKAgAAwYLv5YNaKR1FGW8xH9PLReLieHu/ULCIhBznagulUlF+mbbdbmxS FkdvqQODx8ty6UCSRnNCV83gZG9DjUoiFu9LHKK5vhVeIzuAc1+OovQIO0Iyy2BBCt0eHR2nKlUZ xjIWh3OWFm1Zbg7dALIKa9LTQAX3pbtGJhLHB2rKio/2s0Nwvdzg2H1imVzd2D0ZylwSB8fa2OGv UrnaYOxplMdGhfCuNDigy90vTuvIGXL8ois9IN23Xyov59YosM10M2r1Z9kBunkqzVm7n+9A+YcN FQfYwb31XY6LdZLNBQsTDRa/IFgAACBYwGb4jbWF2v54wRy06aMdIXeY63SZxrjVrpG7/hFhAACA YPEb5TqjklS1RcewMD7z6cpc1Y4/NNNva65QNZq3POQCwQIAABAsdqmQs/NIpTyP9kHJLVBVHE1p QNmZNNPTMeh7i/kRLAAAAMECAAAAECwAAAAAwQIAAAAQLBAsAAAAAMECAAAAECwAAAAAwQLBAgAA ABAsAAAAAMECAAAAECwAAAAAwQLBAgAAABAsAAAAAMECAAAAECwQLAAAAADBAgAAABAsAAAAAMEC AAAAECwQLAAAAADBAgAAABAsqMmp+2R6x7u9+vKl6aaVTOQHvAkAAOBthJaWJibdt+6Meh893pYF ro2Orrb+T3wivyJYZMt938MV8OSHd7nbCwuL3HrJD9u75LW1VxMut210fHllBR82AIAP3ov5hZu3 bFyZQqa3yRaJYYJ3ennp4puFeQQLQfcfPIyfCTKRXzcxc3h1bubh+F336OSDqdnF1Te7IlisrK6O OSd3KLIAAMBus7RMrNyduhcvy6y2sS0v7dXYKHPlSoZpT1RdvLdg8eDhTGKq4CbyxyxjxYtH03an 2z45TbIF+cHpW379voPFYjB0e8SRGFq5yfdkDrUXAAAfnmBoiVz274yMJ2YLl3t6ywt8PTcX9noz THvisLyfYBEv19OnrEp65sXUBEkVj5+tRSIvA5Pk57uz/vD7DBaBF/M3rTahnSLTxKQbH0IAgA8G uZm02se4K3w8WwzdsgWDoa0Hi/n5zE0hCBYbFO3cFC/guSmrQ7/gG3W67Z4XJFdE3rz03XPbndMP Q5tb+/YGC6ttLEOq4Cbb6Dg+igAAH4CFxeCtO6OJV3guW/gDL95msW+WQjsdLFZWVydc9xzOyZSJ 3P2urKzu7WDxNgX82vNHdqd79GGQbf4Iz3lIsLh3f/7NTq83g0ePfRsGi7fs1AMAALvBi/mFYas9 5fJ+Z8SxtLz8lkt+8/LlTgeLtbVXQiUUs7b2Gw4W/l0XLIgnc882DBYjjrv4TAIA7F2BF/NDt+6k XNuttrFgaGkblv769TtoCnnuD6QXT+SP23WI9mSwiDaFTEebQh5vpinkbZpgNuQPvIgPOoovk2Tb Sfd97o9Dljv4WAIA7FGk9L0xfDulSLbcGVl8i34VKVZ/bhMMFj+3beOO7FCq2KvBIrLGdt68y3Xe 9NPOm5O+F+FNrG6LnUaz2aPF4G22O0/iAkngQDcLAIC9zu6YSCk7hq32+W19uMBqR4dgsOho396Q tBOpYs8Gi8jr+ZktDjd9u2GuWVlaXknvS+Fgn28xvalndQAAwK6xuBhMKTuGbt15Mb+wvWt52dUl +HSsC+e3vQImsN3bv3eDBYkWL589jj8gK7ipB2Td93iTHszleRcjg0mwsI85X716hQ8nAMBelNJJ /8bwbX9g+x+C+bKnRzBY/HppTxyoPRss3s7UveijxMkP72B13kePSbB4/fo1PpkAAHvU6PjdeKqw Oya2vQUhWtReuSwULMi/ECyyWCazFh3lwqy94z1/L19+BgAAexSXJx48nJnfyTvh8NTUakc7bwcL 8i8ECwAAAPhtQbAAAAAABAsAAABAsAAAAAAECwQLAAAAQLAAAAAABAsAAABAsAAAAAAECwQLAAAA QLAAAAAABAsAAABAsECwAAAAAAQLAAAAQLAAAAAABAsAAABAsECwAAAAAAQLAAAAQLAAAAAABAsc MgAAAECwAAAAAAQLAAAAQLAAAAAABAsECwAAAECwAAAAAAQLAAAAQLAAAAAAQLAAAAAABAsAAABA sAAAAAAECwQLAAAAQLAAAAAABAsAAABAsAAAAABAsAAAAAAECwAAAECwAAAAgN+M/w8hUhTivW5p twAAAABJRU5ErkJggg== " id="image137" x="48.321159" y="53.433895" /><text xml:space="preserve" style="font-style:normal;font-weight:normal;font-size:2.68272px;line-height:125%;font-family:sans-serif;letter-spacing:0px;word-spacing:0px;fill:#000000;fill-opacity:1;stroke:none;stroke-width:0.201204px;stroke-linecap:butt;stroke-linejoin:miter;stroke-opacity:1" x="33.554783" y="57.711262" id="text353"><tspan sodipodi:role="line" id="tspan351" style="font-style:normal;font-variant:normal;font-weight:bold;font-stretch:normal;font-size:2.68272px;font-family:Ubuntu;-inkscape-font-specification:'Ubuntu, Bold';font-variant-ligatures:normal;font-variant-caps:normal;font-variant-numeric:normal;font-variant-east-asian:normal;fill:#4950d8;fill-opacity:1;stroke-width:0.201204px" x="33.554783" y="57.711262">Profile bar</tspan></text><text xml:space="preserve" style="font-style:normal;font-weight:normal;font-size:2.67932px;line-height:125%;font-family:sans-serif;letter-spacing:0px;word-spacing:0px;fill:#000000;fill-opacity:1;stroke:none;stroke-width:0.200949px;stroke-linecap:butt;stroke-linejoin:miter;stroke-opacity:1" x="26.41259" y="68.100899" id="text407"><tspan sodipodi:role="line" id="tspan405" style="font-style:normal;font-variant:normal;font-weight:bold;font-stretch:normal;font-size:2.67932px;font-family:Ubuntu;-inkscape-font-specification:'Ubuntu, Bold';font-variant-ligatures:normal;font-variant-caps:normal;font-variant-numeric:normal;font-variant-east-asian:normal;fill:#4950d8;fill-opacity:1;stroke-width:0.200949px" x="26.41259" y="68.100899">Comment editor</tspan></text><text xml:space="preserve" style="font-style:normal;font-weight:normal;font-size:2.67932px;line-height:125%;font-family:sans-serif;letter-spacing:0px;word-spacing:0px;fill:#000000;fill-opacity:1;stroke:none;stroke-width:0.200949px;stroke-linecap:butt;stroke-linejoin:miter;stroke-opacity:1" x="25.674444" y="89.079208" id="text411"><tspan sodipodi:role="line" id="tspan409" style="font-style:normal;font-variant:normal;font-weight:bold;font-stretch:normal;font-size:2.67932px;font-family:Ubuntu;-inkscape-font-specification:'Ubuntu, Bold';font-variant-ligatures:normal;font-variant-caps:normal;font-variant-numeric:normal;font-variant-east-asian:normal;fill:#4950d8;fill-opacity:1;stroke-width:0.200949px" x="25.674444" y="89.079208">Comment author</tspan></text><text xml:space="preserve" style="font-style:normal;font-weight:normal;font-size:2.92762px;line-height:125%;font-family:sans-serif;letter-spacing:0px;word-spacing:0px;fill:#000000;fill-opacity:1;stroke:none;stroke-width:0.219571px;stroke-linecap:butt;stroke-linejoin:miter;stroke-opacity:1" x="27.243015" y="97.126633" id="text462"><tspan sodipodi:role="line" id="tspan460" style="font-style:normal;font-variant:normal;font-weight:bold;font-stretch:normal;font-size:2.92762px;font-family:Ubuntu;-inkscape-font-specification:'Ubuntu, Bold';font-variant-ligatures:normal;font-variant-caps:normal;font-variant-numeric:normal;font-variant-east-asian:normal;fill:#4950d8;fill-opacity:1;stroke-width:0.219571px" x="27.243015" y="97.126633">Comment text</tspan></text><text xml:space="preserve" style="font-style:normal;font-weight:normal;font-size:2.92762px;line-height:80%;font-family:sans-serif;letter-spacing:0px;word-spacing:0px;fill:#000000;fill-opacity:1;stroke:none;stroke-width:0.219571px;stroke-linecap:butt;stroke-linejoin:miter;stroke-opacity:1" x="19.990578" y="103.47935" id="text472"><tspan sodipodi:role="line" id="tspan470" style="font-style:normal;font-variant:normal;font-weight:bold;font-stretch:normal;font-size:2.92762px;font-family:Ubuntu;-inkscape-font-specification:'Ubuntu, Bold';font-variant-ligatures:normal;font-variant-caps:normal;font-variant-numeric:normal;font-variant-east-asian:normal;fill:#4950d8;fill-opacity:1;stroke-width:0.219571px" x="19.990578" y="103.47935">Comment score and</tspan><tspan sodipodi:role="line" style="font-style:normal;font-variant:normal;font-weight:bold;font-stretch:normal;font-size:2.92762px;font-family:Ubuntu;-inkscape-font-specification:'Ubuntu, Bold';font-variant-ligatures:normal;font-variant-caps:normal;font-variant-numeric:normal;font-variant-east-asian:normal;fill:#4950d8;fill-opacity:1;stroke-width:0.219571px" x="19.990578" y="106.03117" id="tspan474">voting buttons</tspan></text><text xml:space="preserve" style="font-style:normal;font-weight:normal;font-size:2.92762px;line-height:125%;font-family:sans-serif;letter-spacing:0px;word-spacing:0px;fill:#000000;fill-opacity:1;stroke:none;stroke-width:0.219571px;stroke-linecap:butt;stroke-linejoin:miter;stroke-opacity:1" x="29.29454" y="113.27098" id="text478"><tspan sodipodi:role="line" id="tspan476" style="font-style:normal;font-variant:normal;font-weight:bold;font-stretch:normal;font-size:2.92762px;font-family:Ubuntu;-inkscape-font-specification:'Ubuntu, Bold';font-variant-ligatures:normal;font-variant-caps:normal;font-variant-numeric:normal;font-variant-east-asian:normal;fill:#4950d8;fill-opacity:1;stroke-width:0.219571px" x="29.29454" y="113.27098">Reply button</tspan></text><text xml:space="preserve" style="font-style:normal;font-weight:normal;font-size:2.92762px;line-height:125%;font-family:sans-serif;letter-spacing:0px;word-spacing:0px;fill:#000000;fill-opacity:1;stroke:none;stroke-width:0.219571px;stroke-linecap:butt;stroke-linejoin:miter;stroke-opacity:1" x="144.08736" y="82.30658" id="text482"><tspan sodipodi:role="line" id="tspan480" style="font-style:normal;font-variant:normal;font-weight:bold;font-stretch:normal;font-size:2.92762px;font-family:Ubuntu;-inkscape-font-specification:'Ubuntu, Bold';font-variant-ligatures:normal;font-variant-caps:normal;font-variant-numeric:normal;font-variant-east-asian:normal;fill:#4950d8;fill-opacity:1;stroke-width:0.219571px" x="144.08736" y="82.30658">Sort buttons</tspan></text><text xml:space="preserve" style="font-style:normal;font-weight:normal;font-size:2.92762px;line-height:125%;font-family:sans-serif;letter-spacing:0px;word-spacing:0px;fill:#000000;fill-opacity:1;stroke:none;stroke-width:0.219571px;stroke-linecap:butt;stroke-linejoin:miter;stroke-opacity:1" x="144.08736" y="89.98037" id="text486"><tspan sodipodi:role="line" id="tspan484" style="font-style:normal;font-variant:normal;font-weight:bold;font-stretch:normal;font-size:2.92762px;font-family:Ubuntu;-inkscape-font-specification:'Ubuntu, Bold';font-variant-ligatures:normal;font-variant-caps:normal;font-variant-numeric:normal;font-variant-east-asian:normal;fill:#4950d8;fill-opacity:1;stroke-width:0.219571px" x="144.08736" y="89.98037">Sticky button</tspan></text><text xml:space="preserve" style="font-style:normal;font-weight:normal;font-size:2.92762px;line-height:125%;font-family:sans-serif;letter-spacing:0px;word-spacing:0px;fill:#000000;fill-opacity:1;stroke:none;stroke-width:0.219571px;stroke-linecap:butt;stroke-linejoin:miter;stroke-opacity:1" x="143.95268" y="97.777771" id="text490"><tspan sodipodi:role="line" id="tspan488" style="font-style:normal;font-variant:normal;font-weight:bold;font-stretch:normal;font-size:2.92762px;font-family:Ubuntu;-inkscape-font-specification:'Ubuntu, Bold';font-variant-ligatures:normal;font-variant-caps:normal;font-variant-numeric:normal;font-variant-east-asian:normal;fill:#4950d8;fill-opacity:1;stroke-width:0.219571px" x="143.95268" y="97.777771">Edit button</tspan></text><text xml:space="preserve" style="font-style:normal;font-weight:normal;font-size:2.92762px;line-height:125%;font-family:sans-serif;letter-spacing:0px;word-spacing:0px;fill:#000000;fill-opacity:1;stroke:none;stroke-width:0.219571px;stroke-linecap:butt;stroke-linejoin:miter;stroke-opacity:1" x="143.95268" y="111.74673" id="text494"><tspan sodipodi:role="line" id="tspan492" style="font-style:normal;font-variant:normal;font-weight:bold;font-stretch:normal;font-size:2.92762px;font-family:Ubuntu;-inkscape-font-specification:'Ubuntu, Bold';font-variant-ligatures:normal;font-variant-caps:normal;font-variant-numeric:normal;font-variant-east-asian:normal;fill:#4950d8;fill-opacity:1;stroke-width:0.219571px" x="143.95268" y="111.74673">Delete button</tspan></text><text xml:space="preserve" style="font-style:normal;font-weight:normal;font-size:2.92762px;line-height:80%;font-family:sans-serif;letter-spacing:0px;word-spacing:0px;fill:#000000;fill-opacity:1;stroke:none;stroke-width:0.219571px;stroke-linecap:butt;stroke-linejoin:miter;stroke-opacity:1" x="144.03758" y="102.56851" id="text498"><tspan sodipodi:role="line" id="tspan496" style="font-style:normal;font-variant:normal;font-weight:bold;font-stretch:normal;font-size:2.92762px;font-family:Ubuntu;-inkscape-font-specification:'Ubuntu, Bold';font-variant-ligatures:normal;font-variant-caps:normal;font-variant-numeric:normal;font-variant-east-asian:normal;fill:#4950d8;fill-opacity:1;stroke-width:0.219571px" x="144.03758" y="102.56851">Collapse children</tspan><tspan sodipodi:role="line" style="font-style:normal;font-variant:normal;font-weight:bold;font-stretch:normal;font-size:2.92762px;font-family:Ubuntu;-inkscape-font-specification:'Ubuntu, Bold';font-variant-ligatures:normal;font-variant-caps:normal;font-variant-numeric:normal;font-variant-east-asian:normal;fill:#4950d8;fill-opacity:1;stroke-width:0.219571px" x="144.03758" y="105.12033" id="tspan500">button</tspan></text><path style="fill:none;fill-rule:evenodd;stroke:#4950d8;stroke-width:0.264583px;stroke-linecap:butt;stroke-linejoin:miter;stroke-opacity:1;marker-end:url(#Dot)" d="m 33.774766,58.445928 c 0,0 16.323237,0 16.323237,0" id="path565" inkscape:path-effect="#path-effect567" inkscape:original-d="M 33.774766,58.445928 H 50.098003" sodipodi:nodetypes="cc" /><path style="fill:none;fill-rule:evenodd;stroke:#4950d8;stroke-width:0.264583px;stroke-linecap:butt;stroke-linejoin:miter;stroke-opacity:1;marker-end:url(#Dot)" d="m 26.554594,68.900077 c 0,0 23.543409,-0.01202 23.543409,-0.01202" id="path2084" inkscape:path-effect="#path-effect2088" inkscape:original-d="m 26.554594,68.900077 23.543409,-0.01202" sodipodi:nodetypes="cc" /><path style="fill:none;fill-rule:evenodd;stroke:#4950d8;stroke-width:0.264583px;stroke-linecap:butt;stroke-linejoin:miter;stroke-opacity:1;marker-end:url(#Dot)" d="m 25.816448,89.879745 c 0,0 24.281555,-0.01337 24.281555,-0.01337" id="path2100" inkscape:path-effect="#path-effect2104" inkscape:original-d="m 25.816448,89.879745 24.281555,-0.01337" sodipodi:nodetypes="cc" /><path style="fill:none;fill-rule:evenodd;stroke:#4950d8;stroke-width:0.264583px;stroke-linecap:butt;stroke-linejoin:miter;stroke-opacity:1;marker-end:url(#Dot)" d="m 27.398179,97.815588 c 0,0 22.699824,0.101683 22.699824,0.101683" id="path2116" inkscape:path-effect="#path-effect2120" inkscape:original-d="m 27.398179,97.815588 22.699824,0.101683" sodipodi:nodetypes="cc" /><path id="path2251" style="fill:none;fill-rule:evenodd;stroke:#4950d8;stroke-width:0.265;stroke-linecap:butt;stroke-linejoin:miter;stroke-dasharray:none;stroke-opacity:1;marker-end:url(#Dot)" inkscape:path-effect="#path-effect2255" inkscape:original-d="m 20.025709,106.74873 c 0,0 30.600103,0.0779 33.399798,0.0779 0.343323,-1.22698 1.029175,-3.68174 1.029175,-3.68174" d="m 20.025709,106.74873 c 11.133266,0.026 30.600118,0.0714 32.171462,-0.5389 1.571344,-0.61027 1.914453,-1.83769 2.257511,-3.06494" sodipodi:nodetypes="czc" /><path id="path2314" style="fill:none;fill-rule:evenodd;stroke:#4950d8;stroke-width:0.265;stroke-linecap:butt;stroke-linejoin:miter;stroke-dasharray:none;stroke-opacity:1;marker-end:url(#Dot)" inkscape:path-effect="#path-effect2318" inkscape:original-d="m 29.534605,114.06077 c 0,0 20.782105,0.1 31.172761,0.14954 0.163089,-0.60866 0.376417,-11.06539 0.376417,-11.06539" d="m 29.534605,114.06077 c 10.39092,0.0498 20.782106,0.0997 25.987869,-0.18213 5.205762,-0.28183 5.435837,-7.04526 5.561309,-10.73372" sodipodi:nodetypes="csc" /><path style="fill:none;fill-rule:evenodd;stroke:#4950d8;stroke-width:0.264583px;stroke-linecap:butt;stroke-linejoin:miter;stroke-opacity:1;marker-end:url(#Dot)" d="m 161.35591,83.057747 c 0,0 -22.59352,0.03947 -22.59352,0.03947" id="path2332" inkscape:path-effect="#path-effect2336" inkscape:original-d="m 161.35591,83.057747 -22.59352,0.03947" sodipodi:nodetypes="cc" /><path style="fill:none;fill-rule:evenodd;stroke:#4950d8;stroke-width:0.264583px;stroke-linecap:butt;stroke-linejoin:miter;stroke-opacity:1;marker-end:url(#Dot)" d="m 161.35591,83.057747 c 0,0 -22.59352,0.03947 -22.59352,0.03947" id="path2348" inkscape:path-effect="#path-effect2352" inkscape:original-d="m 161.35591,83.057747 -22.59352,0.03947" sodipodi:nodetypes="cc" /><path id="path2386" style="fill:none;fill-rule:evenodd;stroke:#4950d8;stroke-width:0.265;stroke-linecap:butt;stroke-linejoin:miter;stroke-dasharray:none;stroke-opacity:1;marker-end:url(#Dot)" inkscape:path-effect="#path-effect2390" inkscape:original-d="m 162.41687,90.670201 c 0,0 -29.52322,-0.107886 -39.66294,-0.145293 -0.25165,2.306374 -0.98542,9.020911 -0.98542,9.020911" d="m 162.41687,90.670201 c -13.22098,-0.04843 -29.52322,-0.108149 -34.71905,1.02645 -5.19583,1.134599 -5.60084,4.842198 -5.92931,7.849168" sodipodi:nodetypes="czc" /><path id="path3215" style="fill:none;fill-rule:evenodd;stroke:#4950d8;stroke-width:0.265;stroke-linecap:butt;stroke-linejoin:miter;stroke-dasharray:none;stroke-opacity:1;marker-end:url(#Dot)" inkscape:path-effect="#path-effect3219" inkscape:original-d="m 159.40245,98.577927 c 0,0 -26.19341,-0.107728 -31.26917,-0.128918 -0.32137,0.178298 -1.98148,1.096807 -1.98148,1.096807" d="m 159.40245,98.577927 c -10.42306,-0.04297 -26.19341,-0.107991 -28.89206,-0.02946 -2.69865,0.07853 -3.6981,0.63175 -4.35859,0.997352" sodipodi:nodetypes="czc" /><path id="path4033" style="fill:none;fill-rule:evenodd;stroke:#4950d8;stroke-width:0.265;stroke-linecap:butt;stroke-linejoin:miter;stroke-dasharray:none;stroke-opacity:1;marker-end:url(#Dot)" inkscape:path-effect="#path-effect4037" inkscape:original-d="m 167.53978,106.08361 c 0,0 -30.71167,0.0273 -33.70327,0.0297 -0.006,-0.25378 -0.0738,-2.8623 -0.0738,-2.8623" d="m 167.53978,106.08361 c -11.23442,0.01 -30.71167,0.0271 -32.21074,-0.0985 -1.49907,-0.12557 -1.54173,-1.78 -1.56633,-2.7341" sodipodi:nodetypes="czc" /><path id="path4111" style="fill:none;fill-rule:evenodd;stroke:#4950d8;stroke-width:0.265;stroke-linecap:butt;stroke-linejoin:miter;stroke-dasharray:none;stroke-opacity:1;marker-end:url(#Dot)" inkscape:path-effect="#path-effect4115" inkscape:original-d="m 163.16048,112.67003 c 0,0 -27.68402,0.0648 -33.39979,0.0779 -0.003,-1.62489 -0.0204,-9.49692 -0.0204,-9.49692" d="m 163.16048,112.67003 c -11.13326,0.026 -27.68402,0.0646 -30.54365,-0.74121 -2.85963,-0.80578 -2.86974,-5.51217 -2.87654,-8.67781" sodipodi:nodetypes="czc" /></g></svg>
